{
  "2008": {
    "SC Ganguly": { "balls": 305, "runs": 349, "rate": "114.43" },
    "BB McCullum": { "balls": 91, "runs": 188, "rate": "206.59" },
    "RT Ponting": { "balls": 53, "runs": 39, "rate": "73.58" },
    "DJ Hussey": { "balls": 258, "runs": 319, "rate": "123.64" },
    "Mohammad Hafeez": { "balls": 83, "runs": 64, "rate": "77.11" },
    "R Dravid": { "balls": 297, "runs": 371, "rate": "124.92" },
    "W Jaffer": { "balls": 104, "runs": 115, "rate": "110.58" },
    "V Kohli": { "balls": 157, "runs": 165, "rate": "105.10" },
    "JH Kallis": { "balls": 183, "runs": 199, "rate": "108.74" },
    "CL White": { "balls": 100, "runs": 114, "rate": "114.00" },
    "MV Boucher": { "balls": 177, "runs": 225, "rate": "127.12" },
    "B Akhil": { "balls": 31, "runs": 46, "rate": "148.39" },
    "AA Noffke": { "balls": 10, "runs": 9, "rate": "90.00" },
    "P Kumar": { "balls": 98, "runs": 112, "rate": "114.29" },
    "Z Khan": { "balls": 42, "runs": 34, "rate": "80.95" },
    "SB Joshi": { "balls": 14, "runs": 6, "rate": "42.86" },
    "PA Patel": { "balls": 295, "runs": 302, "rate": "102.37" },
    "ML Hayden": { "balls": 127, "runs": 189, "rate": "148.82" },
    "MEK Hussey": { "balls": 100, "runs": 168, "rate": "168.00" },
    "MS Dhoni": { "balls": 310, "runs": 414, "rate": "133.55" },
    "SK Raina": { "balls": 294, "runs": 421, "rate": "143.20" },
    "JDP Oram": { "balls": 12, "runs": 18, "rate": "150.00" },
    "S Badrinath": { "balls": 130, "runs": 192, "rate": "147.69" },
    "K Goel": { "balls": 78, "runs": 76, "rate": "97.44" },
    "JR Hopes": { "balls": 148, "runs": 221, "rate": "149.32" },
    "KC Sangakkara": { "balls": 197, "runs": 320, "rate": "162.44" },
    "Yuvraj Singh": { "balls": 184, "runs": 299, "rate": "162.50" },
    "SM Katich": { "balls": 68, "runs": 96, "rate": "141.18" },
    "IK Pathan": { "balls": 115, "runs": 131, "rate": "113.91" },
    "T Kohli": { "balls": 15, "runs": 10, "rate": "66.67" },
    "YK Pathan": { "balls": 239, "runs": 435, "rate": "182.01" },
    "SR Watson": { "balls": 307, "runs": 472, "rate": "153.75" },
    "M Kaif": { "balls": 170, "runs": 176, "rate": "103.53" },
    "DS Lehmann": { "balls": 18, "runs": 18, "rate": "100.00" },
    "RA Jadeja": { "balls": 100, "runs": 135, "rate": "135.00" },
    "M Rawat": { "balls": 39, "runs": 34, "rate": "87.18" },
    "D Salunkhe": { "balls": 24, "runs": 33, "rate": "137.50" },
    "SK Warne": { "balls": 58, "runs": 70, "rate": "120.69" },
    "SK Trivedi": { "balls": 12, "runs": 5, "rate": "41.67" },
    "G Gambhir": { "balls": 378, "runs": 534, "rate": "141.27" },
    "V Sehwag": { "balls": 216, "runs": 406, "rate": "187.96" },
    "S Dhawan": { "balls": 295, "runs": 340, "rate": "115.25" },
    "L Ronchi": { "balls": 32, "runs": 34, "rate": "106.25" },
    "ST Jayasuriya": { "balls": 308, "runs": 514, "rate": "166.88" },
    "DJ Thornely": { "balls": 53, "runs": 39, "rate": "73.58" },
    "RV Uthappa": { "balls": 274, "runs": 320, "rate": "116.79" },
    "PR Shah": { "balls": 34, "runs": 34, "rate": "100.00" },
    "AM Nayar": { "balls": 137, "runs": 206, "rate": "150.36" },
    "SM Pollock": { "balls": 111, "runs": 147, "rate": "132.43" },
    "Harbhajan Singh": { "balls": 17, "runs": 30, "rate": "176.47" },
    "S Chanderpaul": { "balls": 31, "runs": 25, "rate": "80.65" },
    "LRPL Taylor": { "balls": 81, "runs": 149, "rate": "183.95" },
    "AC Gilchrist": { "balls": 314, "runs": 436, "rate": "138.85" },
    "Y Venugopal Rao": { "balls": 207, "runs": 288, "rate": "139.13" },
    "VVS Laxman": { "balls": 132, "runs": 155, "rate": "117.42" },
    "A Symonds": { "balls": 104, "runs": 161, "rate": "154.81" },
    "RG Sharma": { "balls": 270, "runs": 404, "rate": "149.63" },
    "SB Styris": { "balls": 122, "runs": 112, "rate": "91.80" },
    "AS Yadav": { "balls": 39, "runs": 49, "rate": "125.64" },
    "SB Bangar": { "balls": 49, "runs": 47, "rate": "95.92" },
    "WPUJC Vaas": { "balls": 17, "runs": 21, "rate": "123.53" },
    "RP Singh": { "balls": 24, "runs": 27, "rate": "112.50" },
    "WP Saha": { "balls": 119, "runs": 159, "rate": "133.61" },
    "LR Shukla": { "balls": 122, "runs": 163, "rate": "133.61" },
    "DPMD Jayawardene": { "balls": 131, "runs": 179, "rate": "136.64" },
    "S Sohal": { "balls": 8, "runs": 4, "rate": "50.00" },
    "B Lee": { "balls": 12, "runs": 17, "rate": "141.67" },
    "PP Chawla": { "balls": 58, "runs": 90, "rate": "155.17" },
    "WA Mota": { "balls": 27, "runs": 26, "rate": "96.30" },
    "Kamran Akmal": { "balls": 77, "runs": 128, "rate": "166.23" },
    "Shahid Afridi": { "balls": 46, "runs": 81, "rate": "176.09" },
    "DJ Bravo": { "balls": 131, "runs": 178, "rate": "135.88" },
    "MA Khote": { "balls": 22, "runs": 24, "rate": "109.09" },
    "A Nehra": { "balls": 12, "runs": 3, "rate": "25.00" },
    "GC Smith": { "balls": 361, "runs": 441, "rate": "122.16" },
    "Pankaj Singh": { "balls": 8, "runs": 5, "rate": "62.50" },
    "RR Sarwan": { "balls": 75, "runs": 73, "rate": "97.33" },
    "S Sreesanth": { "balls": 3, "runs": 0, "rate": "0.00" },
    "VRV Singh": { "balls": 3, "runs": 4, "rate": "133.33" },
    "SS Tiwary": { "balls": 20, "runs": 26, "rate": "130.00" },
    "DS Kulkarni": { "balls": 16, "runs": 2, "rate": "12.50" },
    "R Vinay Kumar": { "balls": 22, "runs": 25, "rate": "113.64" },
    "AB Agarkar": { "balls": 45, "runs": 54, "rate": "120.00" },
    "M Kartik": { "balls": 27, "runs": 30, "rate": "111.11" },
    "I Sharma": { "balls": 11, "runs": 11, "rate": "100.00" },
    "AM Rahane": { "balls": 17, "runs": 4, "rate": "23.53" },
    "Shoaib Malik": { "balls": 46, "runs": 52, "rate": "113.04" },
    "MK Tiwary": { "balls": 85, "runs": 104, "rate": "122.35" },
    "KD Karthik": { "balls": 107, "runs": 145, "rate": "135.51" },
    "R Bhatia": { "balls": 28, "runs": 34, "rate": "121.43" },
    "MF Maharoof": { "balls": 79, "runs": 125, "rate": "158.23" },
    "VY Mahesh": { "balls": 27, "runs": 15, "rate": "55.56" },
    "TM Srivastava": { "balls": 10, "runs": 8, "rate": "80.00" },
    "B Chipli": { "balls": 28, "runs": 20, "rate": "71.43" },
    "DW Steyn": { "balls": 5, "runs": 2, "rate": "40.00" },
    "DB Das": { "balls": 94, "runs": 103, "rate": "109.57" },
    "MK Pandey": { "balls": 9, "runs": 3, "rate": "33.33" },
    "HH Gibbs": { "balls": 153, "runs": 167, "rate": "109.15" },
    "DNT Zoysa": { "balls": 9, "runs": 11, "rate": "122.22" },
    "D Kalyankrishna": { "balls": 8, "runs": 3, "rate": "37.50" },
    "SE Marsh": { "balls": 440, "runs": 616, "rate": "140.00" },
    "SA Asnodkar": { "balls": 231, "runs": 311, "rate": "134.63" },
    "Sohail Tanvir": { "balls": 28, "runs": 36, "rate": "128.57" },
    "Salman Butt": { "balls": 160, "runs": 193, "rate": "120.63" },
    "BJ Hodge": { "balls": 17, "runs": 12, "rate": "70.59" },
    "Umar Gul": { "balls": 19, "runs": 39, "rate": "205.26" },
    "AB Dinda": { "balls": 4, "runs": 2, "rate": "50.00" },
    "SP Fleming": { "balls": 162, "runs": 196, "rate": "120.99" },
    "S Vidyut": { "balls": 109, "runs": 145, "rate": "133.03" },
    "JA Morkel": { "balls": 162, "runs": 241, "rate": "148.77" },
    "AB de Villiers": { "balls": 98, "runs": 95, "rate": "96.94" },
    "LPC Silva": { "balls": 26, "runs": 40, "rate": "153.85" },
    "DB Ravi Teja": { "balls": 81, "runs": 109, "rate": "134.57" },
    "Misbah-ul-Haq": { "balls": 81, "runs": 117, "rate": "144.44" },
    "YV Takawale": { "balls": 64, "runs": 70, "rate": "109.38" },
    "RR Raje": { "balls": 9, "runs": 8, "rate": "88.89" },
    "PJ Sangwan": { "balls": 5, "runs": 2, "rate": "40.00" },
    "Mohammad Asif": { "balls": 6, "runs": 3, "rate": "50.00" },
    "GD McGrath": { "balls": 5, "runs": 4, "rate": "80.00" },
    "Joginder Sharma": { "balls": 11, "runs": 16, "rate": "145.45" },
    "MS Gony": { "balls": 22, "runs": 35, "rate": "159.09" },
    "M Muralitharan": { "balls": 3, "runs": 0, "rate": "0.00" },
    "M Ntini": { "balls": 18, "runs": 11, "rate": "61.11" },
    "DT Patil": { "balls": 13, "runs": 13, "rate": "100.00" },
    "A Kumble": { "balls": 17, "runs": 13, "rate": "76.47" },
    "S Anirudha": { "balls": 7, "runs": 1, "rate": "14.29" },
    "MM Patel": { "balls": 1, "runs": 0, "rate": "0.00" },
    "CK Kapugedera": { "balls": 22, "runs": 16, "rate": "72.73" },
    "A Chopra": { "balls": 52, "runs": 42, "rate": "80.77" },
    "T Taibu": { "balls": 26, "runs": 31, "rate": "119.23" },
    "J Arunkumar": { "balls": 23, "runs": 23, "rate": "100.00" },
    "PP Ojha": { "balls": 4, "runs": 2, "rate": "50.00" },
    "SP Goswami": { "balls": 85, "runs": 82, "rate": "96.47" },
    "SR Tendulkar": { "balls": 177, "runs": 188, "rate": "106.21" },
    "U Kaul": { "balls": 1, "runs": 0, "rate": "0.00" },
    "TM Dilshan": { "balls": 78, "runs": 104, "rate": "133.33" },
    "A Mishra": { "balls": 42, "runs": 37, "rate": "88.10" },
    "AD Mascarenhas": { "balls": 8, "runs": 9, "rate": "112.50" },
    "Niraj Patel": { "balls": 81, "runs": 103, "rate": "127.16" },
    "LA Pomersbach": { "balls": 99, "runs": 152, "rate": "153.54" },
    "Iqbal Abdulla": { "balls": 2, "runs": 1, "rate": "50.00" },
    "Younis Khan": { "balls": 7, "runs": 3, "rate": "42.86" },
    "PM Sarvesh Kumar": { "balls": 2, "runs": 1, "rate": "50.00" },
    "DP Vijaykumar": { "balls": 1, "runs": 1, "rate": "100.00" },
    "Shoaib Akhtar": { "balls": 7, "runs": 2, "rate": "28.57" },
    "Abdur Razzak": { "balls": 2, "runs": 0, "rate": "0.00" },
    "H Das": { "balls": 5, "runs": 2, "rate": "40.00" },
    "DR Smith": { "balls": 40, "runs": 45, "rate": "112.50" },
    "SD Chitnis": { "balls": 9, "runs": 18, "rate": "200.00" },
    "CRD Fernando": { "balls": 1, "runs": 2, "rate": "200.00" },
    "VS Yeligati": { "balls": 2, "runs": 2, "rate": "100.00" },
    "L Balaji": { "balls": 4, "runs": 0, "rate": "0.00" },
    "A Mukund": { "balls": 1, "runs": 0, "rate": "0.00" },
    "RR Powar": { "balls": 21, "runs": 28, "rate": "133.33" }
  },
  "2009": {
    "ST Jayasuriya": { "balls": 190, "runs": 221, "rate": "116.32" },
    "SR Tendulkar": { "balls": 299, "runs": 364, "rate": "121.74" },
    "S Dhawan": { "balls": 45, "runs": 40, "rate": "88.89" },
    "JP Duminy": { "balls": 325, "runs": 372, "rate": "114.46" },
    "DJ Bravo": { "balls": 201, "runs": 218, "rate": "108.46" },
    "AM Nayar": { "balls": 151, "runs": 193, "rate": "127.81" },
    "Harbhajan Singh": { "balls": 53, "runs": 84, "rate": "158.49" },
    "Z Khan": { "balls": 11, "runs": 8, "rate": "72.73" },
    "PA Patel": { "balls": 126, "runs": 142, "rate": "112.70" },
    "SK Raina": { "balls": 306, "runs": 434, "rate": "141.83" },
    "ML Hayden": { "balls": 393, "runs": 572, "rate": "145.55" },
    "A Flintoff": { "balls": 53, "runs": 62, "rate": "116.98" },
    "MS Dhoni": { "balls": 261, "runs": 332, "rate": "127.20" },
    "JDP Oram": { "balls": 92, "runs": 88, "rate": "95.65" },
    "S Badrinath": { "balls": 164, "runs": 177, "rate": "107.93" },
    "Joginder Sharma": { "balls": 18, "runs": 20, "rate": "111.11" },
    "T Thushara": { "balls": 7, "runs": 2, "rate": "28.57" },
    "JD Ryder": { "balls": 48, "runs": 56, "rate": "116.67" },
    "LRPL Taylor": { "balls": 206, "runs": 280, "rate": "135.92" },
    "KP Pietersen": { "balls": 84, "runs": 93, "rate": "110.71" },
    "RV Uthappa": { "balls": 170, "runs": 175, "rate": "102.94" },
    "R Dravid": { "balls": 234, "runs": 271, "rate": "115.81" },
    "V Kohli": { "balls": 219, "runs": 246, "rate": "112.33" },
    "B Akhil": { "balls": 15, "runs": 17, "rate": "113.33" },
    "P Kumar": { "balls": 46, "runs": 65, "rate": "141.30" },
    "R Vinay Kumar": { "balls": 44, "runs": 47, "rate": "106.82" },
    "GC Smith": { "balls": 213, "runs": 212, "rate": "99.53" },
    "SA Asnodkar": { "balls": 93, "runs": 98, "rate": "105.38" },
    "Niraj Patel": { "balls": 38, "runs": 18, "rate": "47.37" },
    "T Henderson": { "balls": 15, "runs": 11, "rate": "73.33" },
    "YK Pathan": { "balls": 187, "runs": 261, "rate": "139.57" },
    "AD Mascarenhas": { "balls": 39, "runs": 39, "rate": "100.00" },
    "RA Jadeja": { "balls": 265, "runs": 295, "rate": "111.32" },
    "SK Warne": { "balls": 116, "runs": 108, "rate": "93.10" },
    "M Rawat": { "balls": 19, "runs": 16, "rate": "84.21" },
    "MM Patel": { "balls": 26, "runs": 33, "rate": "126.92" },
    "Kamran Khan": { "balls": 5, "runs": 3, "rate": "60.00" },
    "RS Bopara": { "balls": 119, "runs": 138, "rate": "115.97" },
    "K Goel": { "balls": 133, "runs": 124, "rate": "93.23" },
    "KC Sangakkara": { "balls": 322, "runs": 332, "rate": "103.11" },
    "Yuvraj Singh": { "balls": 294, "runs": 340, "rate": "115.65" },
    "DPMD Jayawardene": { "balls": 165, "runs": 219, "rate": "132.73" },
    "IK Pathan": { "balls": 158, "runs": 196, "rate": "124.05" },
    "G Gambhir": { "balls": 276, "runs": 286, "rate": "103.62" },
    "V Sehwag": { "balls": 134, "runs": 198, "rate": "147.76" },
    "BB McCullum": { "balls": 236, "runs": 286, "rate": "121.19" },
    "CH Gayle": { "balls": 148, "runs": 184, "rate": "124.32" },
    "SC Ganguly": { "balls": 205, "runs": 189, "rate": "92.20" },
    "BJ Hodge": { "balls": 309, "runs": 365, "rate": "118.12" },
    "A Chopra": { "balls": 19, "runs": 11, "rate": "57.89" },
    "LR Shukla": { "balls": 85, "runs": 83, "rate": "97.65" },
    "MC Henriques": { "balls": 40, "runs": 38, "rate": "95.00" },
    "AB Agarkar": { "balls": 57, "runs": 66, "rate": "115.79" },
    "M Kartik": { "balls": 20, "runs": 21, "rate": "105.00" },
    "I Sharma": { "balls": 13, "runs": 16, "rate": "123.08" },
    "AB Dinda": { "balls": 3, "runs": 2, "rate": "66.67" },
    "AC Gilchrist": { "balls": 322, "runs": 495, "rate": "153.73" },
    "HH Gibbs": { "balls": 330, "runs": 371, "rate": "112.42" },
    "VVS Laxman": { "balls": 33, "runs": 19, "rate": "57.58" },
    "RG Sharma": { "balls": 313, "runs": 362, "rate": "115.65" },
    "JA Morkel": { "balls": 70, "runs": 97, "rate": "138.57" },
    "JH Kallis": { "balls": 331, "runs": 361, "rate": "109.06" },
    "R Bishnoi": { "balls": 17, "runs": 19, "rate": "111.76" },
    "DW Steyn": { "balls": 3, "runs": 0, "rate": "0.00" },
    "A Kumble": { "balls": 19, "runs": 16, "rate": "84.21" },
    "T Kohli": { "balls": 4, "runs": 1, "rate": "25.00" },
    "PP Chawla": { "balls": 36, "runs": 31, "rate": "86.11" },
    "SB Styris": { "balls": 8, "runs": 14, "rate": "175.00" },
    "Y Venugopal Rao": { "balls": 114, "runs": 124, "rate": "108.77" },
    "DB Ravi Teja": { "balls": 70, "runs": 65, "rate": "92.86" },
    "FH Edwards": { "balls": 5, "runs": 4, "rate": "80.00" },
    "KV Sharma": { "balls": 3, "runs": 1, "rate": "33.33" },
    "AB de Villiers": { "balls": 354, "runs": 465, "rate": "131.36" },
    "TM Dilshan": { "balls": 339, "runs": 418, "rate": "123.30" },
    "KD Karthik": { "balls": 217, "runs": 288, "rate": "132.72" },
    "MK Tiwary": { "balls": 13, "runs": 9, "rate": "69.23" },
    "MS Gony": { "balls": 7, "runs": 13, "rate": "185.71" },
    "M Muralitharan": { "balls": 8, "runs": 8, "rate": "100.00" },
    "PC Valthaty": { "balls": 12, "runs": 6, "rate": "50.00" },
    "RJ Quiney": { "balls": 102, "runs": 103, "rate": "100.98" },
    "AS Raut": { "balls": 61, "runs": 78, "rate": "127.87" },
    "SB Bangar": { "balls": 9, "runs": 2, "rate": "22.22" },
    "Yashpal Singh": { "balls": 65, "runs": 47, "rate": "72.31" },
    "Pankaj Singh": { "balls": 2, "runs": 1, "rate": "50.00" },
    "DR Smith": { "balls": 131, "runs": 215, "rate": "164.12" },
    "RP Singh": { "balls": 17, "runs": 8, "rate": "47.06" },
    "PP Ojha": { "balls": 7, "runs": 1, "rate": "14.29" },
    "PR Shah": { "balls": 51, "runs": 53, "rate": "103.92" },
    "MV Boucher": { "balls": 114, "runs": 150, "rate": "131.58" },
    "M Manhas": { "balls": 62, "runs": 75, "rate": "120.97" },
    "WA Mota": { "balls": 48, "runs": 30, "rate": "62.50" },
    "AA Bilakhia": { "balls": 80, "runs": 67, "rate": "83.75" },
    "SS Tiwary": { "balls": 12, "runs": 13, "rate": "108.33" },
    "AN Ghosh": { "balls": 8, "runs": 7, "rate": "87.50" },
    "BAW Mendis": { "balls": 1, "runs": 0, "rate": "0.00" },
    "DL Vettori": { "balls": 31, "runs": 34, "rate": "109.68" },
    "A Mishra": { "balls": 20, "runs": 26, "rate": "130.00" },
    "PJ Sangwan": { "balls": 10, "runs": 6, "rate": "60.00" },
    "MN van Wyk": { "balls": 131, "runs": 167, "rate": "127.48" },
    "WP Saha": { "balls": 41, "runs": 72, "rate": "175.61" },
    "SP Goswami": { "balls": 60, "runs": 53, "rate": "88.33" },
    "RE van der Merwe": { "balls": 98, "runs": 122, "rate": "124.49" },
    "MK Pandey": { "balls": 117, "runs": 168, "rate": "143.59" },
    "RR Powar": { "balls": 22, "runs": 23, "rate": "104.55" },
    "TL Suman": { "balls": 190, "runs": 237, "rate": "124.74" },
    "Shoaib Ahmed": { "balls": 6, "runs": 1, "rate": "16.67" },
    "SK Trivedi": { "balls": 17, "runs": 9, "rate": "52.94" },
    "GR Napier": { "balls": 16, "runs": 15, "rate": "93.75" },
    "AM Rahane": { "balls": 121, "runs": 144, "rate": "119.01" },
    "KP Appanna": { "balls": 1, "runs": 0, "rate": "0.00" },
    "SM Katich": { "balls": 117, "runs": 145, "rate": "123.93" },
    "TM Srivastava": { "balls": 1, "runs": 0, "rate": "0.00" },
    "LA Carseldine": { "balls": 66, "runs": 81, "rate": "122.73" },
    "NV Ojha": { "balls": 144, "runs": 168, "rate": "116.67" },
    "SM Harwood": { "balls": 13, "runs": 9, "rate": "69.23" },
    "M Vijay": { "balls": 67, "runs": 60, "rate": "89.55" },
    "SB Jakati": { "balls": 15, "runs": 20, "rate": "133.33" },
    "L Balaji": { "balls": 10, "runs": 4, "rate": "40.00" },
    "DA Warner": { "balls": 132, "runs": 163, "rate": "123.48" },
    "R Bhatia": { "balls": 18, "runs": 8, "rate": "44.44" },
    "S Sohal": { "balls": 91, "runs": 115, "rate": "126.37" },
    "W Jaffer": { "balls": 17, "runs": 15, "rate": "88.24" },
    "RJ Harris": { "balls": 18, "runs": 21, "rate": "116.67" },
    "S Sreesanth": { "balls": 18, "runs": 5, "rate": "27.78" },
    "RR Raje": { "balls": 9, "runs": 12, "rate": "133.33" },
    "DS Kulkarni": { "balls": 17, "runs": 9, "rate": "52.94" },
    "D du Preez": { "balls": 13, "runs": 10, "rate": "76.92" },
    "L Ronchi": { "balls": 2, "runs": 0, "rate": "0.00" },
    "A Symonds": { "balls": 163, "runs": 249, "rate": "152.76" },
    "B Lee": { "balls": 34, "runs": 28, "rate": "82.35" },
    "WPUJC Vaas": { "balls": 21, "runs": 30, "rate": "142.86" },
    "M Morkel": { "balls": 8, "runs": 8, "rate": "100.00" },
    "DJ Hussey": { "balls": 57, "runs": 98, "rate": "171.93" },
    "AD Mathews": { "balls": 13, "runs": 16, "rate": "123.08" },
    "LA Pomersbach": { "balls": 46, "runs": 41, "rate": "89.13" },
    "SD Chitnis": { "balls": 8, "runs": 6, "rate": "75.00" },
    "J Botha": { "balls": 39, "runs": 47, "rate": "120.51" },
    "YV Takawale": { "balls": 22, "runs": 18, "rate": "81.82" },
    "C Nanda": { "balls": 1, "runs": 0, "rate": "0.00" },
    "SL Malinga": { "balls": 1, "runs": 0, "rate": "0.00" },
    "MF Maharoof": { "balls": 21, "runs": 21, "rate": "100.00" },
    "A Nehra": { "balls": 1, "runs": 1, "rate": "100.00" },
    "Mashrafe Mortaza": { "balls": 2, "runs": 2, "rate": "100.00" },
    "A Singh": { "balls": 3, "runs": 1, "rate": "33.33" },
    "GJ Bailey": { "balls": 39, "runs": 45, "rate": "115.38" },
    "AB McDonald": { "balls": 4, "runs": 3, "rate": "75.00" },
    "Y Nagar": { "balls": 20, "runs": 20, "rate": "100.00" },
    "SS Shaikh": { "balls": 7, "runs": 6, "rate": "85.71" },
    "R Ashwin": { "balls": 15, "runs": 8, "rate": "53.33" },
    "Mohammad Ashraful": { "balls": 10, "runs": 2, "rate": "20.00" }
  },
  "2010": {
    "MK Tiwary": { "balls": 185, "runs": 237, "rate": "128.11" },
    "SC Ganguly": { "balls": 418, "runs": 493, "rate": "117.94" },
    "CA Pujara": { "balls": 115, "runs": 122, "rate": "106.09" },
    "BJ Hodge": { "balls": 90, "runs": 99, "rate": "110.00" },
    "OA Shah": { "balls": 95, "runs": 115, "rate": "121.05" },
    "AD Mathews": { "balls": 183, "runs": 233, "rate": "127.32" },
    "AC Gilchrist": { "balls": 185, "runs": 289, "rate": "156.22" },
    "VVS Laxman": { "balls": 60, "runs": 64, "rate": "106.67" },
    "HH Gibbs": { "balls": 234, "runs": 267, "rate": "114.10" },
    "A Symonds": { "balls": 340, "runs": 429, "rate": "126.18" },
    "RG Sharma": { "balls": 300, "runs": 404, "rate": "134.67" },
    "Anirudh Singh": { "balls": 66, "runs": 63, "rate": "95.45" },
    "TL Suman": { "balls": 255, "runs": 307, "rate": "120.39" },
    "WPUJC Vaas": { "balls": 34, "runs": 30, "rate": "88.24" },
    "Jaskaran Singh": { "balls": 11, "runs": 8, "rate": "72.73" },
    "ST Jayasuriya": { "balls": 31, "runs": 33, "rate": "106.45" },
    "SR Tendulkar": { "balls": 463, "runs": 618, "rate": "133.48" },
    "AP Tare": { "balls": 36, "runs": 50, "rate": "138.89" },
    "SS Tiwary": { "balls": 307, "runs": 419, "rate": "136.48" },
    "AT Rayudu": { "balls": 244, "runs": 356, "rate": "145.90" },
    "R Sathish": { "balls": 96, "runs": 112, "rate": "116.67" },
    "Harbhajan Singh": { "balls": 60, "runs": 105, "rate": "175.00" },
    "R McLaren": { "balls": 69, "runs": 66, "rate": "95.65" },
    "GC Smith": { "balls": 39, "runs": 44, "rate": "112.82" },
    "NV Ojha": { "balls": 283, "runs": 377, "rate": "133.22" },
    "AA Jhunjhunwala": { "balls": 166, "runs": 183, "rate": "110.24" },
    "YK Pathan": { "balls": 200, "runs": 333, "rate": "166.50" },
    "P Dogra": { "balls": 106, "runs": 107, "rate": "100.94" },
    "AD Mascarenhas": { "balls": 10, "runs": 12, "rate": "120.00" },
    "A Uniyal": { "balls": 7, "runs": 4, "rate": "57.14" },
    "SK Warne": { "balls": 19, "runs": 10, "rate": "52.63" },
    "RS Bopara": { "balls": 214, "runs": 248, "rate": "115.89" },
    "MS Bisla": { "balls": 177, "runs": 218, "rate": "123.16" },
    "KC Sangakkara": { "balls": 256, "runs": 357, "rate": "139.45" },
    "Yuvraj Singh": { "balls": 200, "runs": 259, "rate": "129.50" },
    "DPMD Jayawardene": { "balls": 299, "runs": 445, "rate": "148.83" },
    "IK Pathan": { "balls": 186, "runs": 276, "rate": "148.39" },
    "M Kaif": { "balls": 30, "runs": 28, "rate": "93.33" },
    "PP Chawla": { "balls": 59, "runs": 62, "rate": "105.08" },
    "RR Powar": { "balls": 8, "runs": 5, "rate": "62.50" },
    "S Sreesanth": { "balls": 21, "runs": 27, "rate": "128.57" },
    "YA Abdulla": { "balls": 1, "runs": 0, "rate": "0.00" },
    "G Gambhir": { "balls": 217, "runs": 277, "rate": "127.65" },
    "V Sehwag": { "balls": 217, "runs": 356, "rate": "164.06" },
    "TM Dilshan": { "balls": 53, "runs": 44, "rate": "83.02" },
    "AB de Villiers": { "balls": 119, "runs": 111, "rate": "93.28" },
    "KD Karthik": { "balls": 236, "runs": 278, "rate": "117.80" },
    "M Manhas": { "balls": 149, "runs": 157, "rate": "105.37" },
    "MF Maharoof": { "balls": 23, "runs": 31, "rate": "134.78" },
    "JH Kallis": { "balls": 489, "runs": 572, "rate": "116.97" },
    "SP Goswami": { "balls": 10, "runs": 8, "rate": "80.00" },
    "MK Pandey": { "balls": 225, "runs": 249, "rate": "110.67" },
    "V Kohli": { "balls": 211, "runs": 307, "rate": "145.50" },
    "EJG Morgan": { "balls": 30, "runs": 35, "rate": "116.67" },
    "R Dravid": { "balls": 199, "runs": 256, "rate": "128.64" },
    "RV Uthappa": { "balls": 218, "runs": 374, "rate": "171.56" },
    "RE van der Merwe": { "balls": 2, "runs": 1, "rate": "50.00" },
    "P Kumar": { "balls": 8, "runs": 4, "rate": "50.00" },
    "M Vijay": { "balls": 292, "runs": 458, "rate": "156.85" },
    "ML Hayden": { "balls": 279, "runs": 346, "rate": "124.01" },
    "SK Raina": { "balls": 364, "runs": 528, "rate": "145.05" },
    "S Badrinath": { "balls": 301, "runs": 356, "rate": "118.27" },
    "JM Kemp": { "balls": 24, "runs": 26, "rate": "108.33" },
    "MS Dhoni": { "balls": 210, "runs": 287, "rate": "136.67" },
    "JA Morkel": { "balls": 131, "runs": 199, "rate": "151.91" },
    "R Ashwin": { "balls": 40, "runs": 30, "rate": "75.00" },
    "L Balaji": { "balls": 20, "runs": 18, "rate": "90.00" },
    "M Muralitharan": { "balls": 2, "runs": 1, "rate": "50.00" },
    "S Tyagi": { "balls": 4, "runs": 3, "rate": "75.00" },
    "SA Asnodkar": { "balls": 4, "runs": 5, "rate": "125.00" },
    "WP Saha": { "balls": 53, "runs": 67, "rate": "126.42" },
    "LR Shukla": { "balls": 26, "runs": 36, "rate": "138.46" },
    "RS Gavaskar": { "balls": 8, "runs": 2, "rate": "25.00" },
    "SE Bond": { "balls": 2, "runs": 1, "rate": "50.00" },
    "M Kartik": { "balls": 22, "runs": 22, "rate": "100.00" },
    "I Sharma": { "balls": 17, "runs": 6, "rate": "35.29" },
    "KA Pollard": { "balls": 146, "runs": 273, "rate": "186.99" },
    "DJ Bravo": { "balls": 53, "runs": 61, "rate": "115.09" },
    "A Mishra": { "balls": 50, "runs": 39, "rate": "78.00" },
    "PJ Sangwan": { "balls": 14, "runs": 10, "rate": "71.43" },
    "S Ladda": { "balls": 9, "runs": 0, "rate": "0.00" },
    "DP Nannes": { "balls": 13, "runs": 4, "rate": "30.77" },
    "MJ Lumb": { "balls": 189, "runs": 278, "rate": "147.09" },
    "DR Martyn": { "balls": 24, "runs": 19, "rate": "79.17" },
    "S Narwal": { "balls": 12, "runs": 14, "rate": "116.67" },
    "M Morkel": { "balls": 16, "runs": 9, "rate": "56.25" },
    "MM Patel": { "balls": 5, "runs": 4, "rate": "80.00" },
    "SK Trivedi": { "balls": 14, "runs": 20, "rate": "142.86" },
    "DA Warner": { "balls": 189, "runs": 282, "rate": "149.21" },
    "R Bhatia": { "balls": 17, "runs": 24, "rate": "141.18" },
    "PA Patel": { "balls": 79, "runs": 72, "rate": "91.14" },
    "RP Singh": { "balls": 19, "runs": 9, "rate": "47.37" },
    "AB Barath": { "balls": 42, "runs": 42, "rate": "100.00" },
    "Bipul Sharma": { "balls": 7, "runs": 9, "rate": "128.57" },
    "FY Fazal": { "balls": 153, "runs": 164, "rate": "107.19" },
    "AC Voges": { "balls": 143, "runs": 181, "rate": "126.57" },
    "Z Khan": { "balls": 13, "runs": 24, "rate": "184.62" },
    "MD Mishra": { "balls": 142, "runs": 166, "rate": "116.90" },
    "Y Venugopal Rao": { "balls": 43, "runs": 34, "rate": "79.07" },
    "MC Henriques": { "balls": 5, "runs": 11, "rate": "220.00" },
    "Y Nagar": { "balls": 6, "runs": 1, "rate": "16.67" },
    "UT Yadav": { "balls": 4, "runs": 3, "rate": "75.00" },
    "J Theron": { "balls": 5, "runs": 2, "rate": "40.00" },
    "MS Gony": { "balls": 6, "runs": 2, "rate": "33.33" },
    "CH Gayle": { "balls": 183, "runs": 292, "rate": "159.56" },
    "S Dhawan": { "balls": 169, "runs": 191, "rate": "113.02" },
    "MV Boucher": { "balls": 10, "runs": 13, "rate": "130.00" },
    "GJ Bailey": { "balls": 27, "runs": 18, "rate": "66.67" },
    "SJ Srivastava": { "balls": 2, "runs": 1, "rate": "50.00" },
    "R Sharma": { "balls": 26, "runs": 29, "rate": "111.54" },
    "Mandeep Singh": { "balls": 11, "runs": 4, "rate": "36.36" },
    "DJ Hussey": { "balls": 85, "runs": 94, "rate": "110.59" },
    "K Goel": { "balls": 20, "runs": 18, "rate": "90.00" },
    "B Lee": { "balls": 9, "runs": 11, "rate": "122.22" },
    "KM Jadhav": { "balls": 56, "runs": 76, "rate": "135.71" },
    "AB McDonald": { "balls": 52, "runs": 65, "rate": "125.00" },
    "R Vinay Kumar": { "balls": 32, "runs": 27, "rate": "84.38" },
    "DW Steyn": { "balls": 17, "runs": 13, "rate": "76.47" },
    "A Kumble": { "balls": 11, "runs": 6, "rate": "54.55" },
    "SW Tait": { "balls": 13, "runs": 12, "rate": "92.31" },
    "KB Arun Karthik": { "balls": 5, "runs": 3, "rate": "60.00" },
    "T Thushara": { "balls": 11, "runs": 10, "rate": "90.91" },
    "KAJ Roach": { "balls": 9, "runs": 10, "rate": "111.11" },
    "PD Collingwood": { "balls": 156, "runs": 203, "rate": "130.13" },
    "AB Agarkar": { "balls": 28, "runs": 40, "rate": "142.86" },
    "CK Langeveldt": { "balls": 1, "runs": 0, "rate": "0.00" },
    "SE Marsh": { "balls": 114, "runs": 147, "rate": "128.95" },
    "VS Malik": { "balls": 5, "runs": 6, "rate": "120.00" },
    "KP Pietersen": { "balls": 157, "runs": 236, "rate": "150.32" },
    "CL White": { "balls": 33, "runs": 48, "rate": "145.45" },
    "SR Watson": { "balls": 113, "runs": 185, "rate": "163.72" },
    "AS Raut": { "balls": 48, "runs": 56, "rate": "116.67" },
    "RJ Harris": { "balls": 39, "runs": 45, "rate": "115.38" },
    "PP Ojha": { "balls": 8, "runs": 3, "rate": "37.50" },
    "DL Vettori": { "balls": 27, "runs": 33, "rate": "122.22" },
    "LRPL Taylor": { "balls": 75, "runs": 88, "rate": "117.33" },
    "A Mithun": { "balls": 4, "runs": 5, "rate": "125.00" },
    "KP Appanna": { "balls": 3, "runs": 2, "rate": "66.67" },
    "AP Dole": { "balls": 22, "runs": 34, "rate": "154.55" },
    "DR Smith": { "balls": 25, "runs": 22, "rate": "88.00" },
    "AA Bilakhia": { "balls": 4, "runs": 2, "rate": "50.00" },
    "MEK Hussey": { "balls": 44, "runs": 37, "rate": "84.09" },
    "AN Ahmed": { "balls": 7, "runs": 4, "rate": "57.14" },
    "BB McCullum": { "balls": 109, "runs": 114, "rate": "104.59" },
    "JP Duminy": { "balls": 131, "runs": 157, "rate": "119.85" },
    "RS Sodhi": { "balls": 2, "runs": 4, "rate": "200.00" },
    "DE Bollinger": { "balls": 16, "runs": 18, "rate": "112.50" },
    "AB Dinda": { "balls": 1, "runs": 0, "rate": "0.00" },
    "BAW Mendis": { "balls": 1, "runs": 1, "rate": "100.00" },
    "S Sriram": { "balls": 29, "runs": 27, "rate": "93.10" },
    "A Nehra": { "balls": 19, "runs": 23, "rate": "121.05" },
    "B Sumanth": { "balls": 37, "runs": 35, "rate": "94.59" },
    "C Madan": { "balls": 18, "runs": 15, "rate": "83.33" },
    "Iqbal Abdulla": { "balls": 1, "runs": 0, "rate": "0.00" },
    "AG Paunikar": { "balls": 1, "runs": 0, "rate": "0.00" },
    "MR Marsh": { "balls": 30, "runs": 28, "rate": "93.33" },
    "AM Nayar": { "balls": 51, "runs": 58, "rate": "113.73" },
    "Pankaj Singh": { "balls": 2, "runs": 1, "rate": "50.00" },
    "AJ Finch": { "balls": 21, "runs": 21, "rate": "100.00" },
    "STR Binny": { "balls": 5, "runs": 8, "rate": "160.00" },
    "S Anirudha": { "balls": 18, "runs": 30, "rate": "166.67" },
    "Harmeet Singh": { "balls": 1, "runs": 0, "rate": "0.00" },
    "CRD Fernando": { "balls": 2, "runs": 2, "rate": "100.00" },
    "SL Malinga": { "balls": 1, "runs": 1, "rate": "100.00" }
  },
  "2011": {
    "S Anirudha": { "balls": 74, "runs": 83, "rate": "112.16" },
    "M Vijay": { "balls": 339, "runs": 434, "rate": "128.02" },
    "SK Raina": { "balls": 323, "runs": 438, "rate": "135.60" },
    "MS Dhoni": { "balls": 245, "runs": 392, "rate": "160.00" },
    "JA Morkel": { "balls": 100, "runs": 138, "rate": "138.00" },
    "SB Styris": { "balls": 2, "runs": 5, "rate": "250.00" },
    "MS Bisla": { "balls": 89, "runs": 72, "rate": "80.90" },
    "JH Kallis": { "balls": 378, "runs": 424, "rate": "112.17" },
    "YK Pathan": { "balls": 200, "runs": 283, "rate": "141.50" },
    "MK Tiwary": { "balls": 322, "runs": 359, "rate": "111.49" },
    "EJG Morgan": { "balls": 117, "runs": 137, "rate": "117.09" },
    "G Gambhir": { "balls": 314, "runs": 378, "rate": "120.38" },
    "LR Shukla": { "balls": 10, "runs": 14, "rate": "140.00" },
    "Iqbal Abdulla": { "balls": 12, "runs": 15, "rate": "125.00" },
    "R Bhatia": { "balls": 22, "runs": 25, "rate": "113.64" },
    "S Dhawan": { "balls": 309, "runs": 400, "rate": "129.45" },
    "IR Jaggi": { "balls": 37, "runs": 28, "rate": "75.68" },
    "KC Sangakkara": { "balls": 291, "runs": 358, "rate": "123.02" },
    "B Chipli": { "balls": 170, "runs": 207, "rate": "121.76" },
    "JP Duminy": { "balls": 173, "runs": 205, "rate": "118.50" },
    "DT Christian": { "balls": 157, "runs": 190, "rate": "121.02" },
    "DB Ravi Teja": { "balls": 143, "runs": 183, "rate": "127.97" },
    "DW Steyn": { "balls": 35, "runs": 36, "rate": "102.86" },
    "A Mishra": { "balls": 49, "runs": 68, "rate": "138.78" },
    "I Sharma": { "balls": 5, "runs": 4, "rate": "80.00" },
    "AG Paunikar": { "balls": 54, "runs": 49, "rate": "90.74" },
    "R Dravid": { "balls": 312, "runs": 343, "rate": "109.94" },
    "J Botha": { "balls": 198, "runs": 230, "rate": "116.16" },
    "LRPL Taylor": { "balls": 150, "runs": 181, "rate": "120.67" },
    "BB McCullum": { "balls": 272, "runs": 357, "rate": "131.25" },
    "VVS Laxman": { "balls": 41, "runs": 44, "rate": "107.32" },
    "DPMD Jayawardene": { "balls": 257, "runs": 299, "rate": "116.34" },
    "BJ Hodge": { "balls": 234, "runs": 285, "rate": "121.79" },
    "RA Jadeja": { "balls": 227, "runs": 283, "rate": "124.67" },
    "RV Gomez": { "balls": 50, "runs": 46, "rate": "92.00" },
    "PA Patel": { "balls": 182, "runs": 202, "rate": "110.99" },
    "MA Agarwal": { "balls": 117, "runs": 141, "rate": "120.51" },
    "TM Dilshan": { "balls": 180, "runs": 226, "rate": "125.56" },
    "V Kohli": { "balls": 459, "runs": 557, "rate": "121.35" },
    "AB de Villiers": { "balls": 242, "runs": 312, "rate": "128.93" },
    "SS Tiwary": { "balls": 186, "runs": 187, "rate": "100.54" },
    "AUK Pathan": { "balls": 16, "runs": 33, "rate": "206.25" },
    "DA Warner": { "balls": 275, "runs": 324, "rate": "117.82" },
    "V Sehwag": { "balls": 239, "runs": 424, "rate": "177.41" },
    "UBT Chand": { "balls": 12, "runs": 2, "rate": "16.67" },
    "AJ Finch": { "balls": 46, "runs": 47, "rate": "102.17" },
    "NV Ojha": { "balls": 161, "runs": 160, "rate": "99.38" },
    "Y Venugopal Rao": { "balls": 279, "runs": 336, "rate": "120.43" },
    "IK Pathan": { "balls": 137, "runs": 150, "rate": "109.49" },
    "RE van der Merwe": { "balls": 16, "runs": 14, "rate": "87.50" },
    "M Morkel": { "balls": 24, "runs": 40, "rate": "166.67" },
    "UT Yadav": { "balls": 5, "runs": 1, "rate": "20.00" },
    "AB Dinda": { "balls": 5, "runs": 0, "rate": "0.00" },
    "DJ Jacobs": { "balls": 88, "runs": 92, "rate": "104.55" },
    "SR Tendulkar": { "balls": 488, "runs": 553, "rate": "113.32" },
    "AT Rayudu": { "balls": 349, "runs": 395, "rate": "113.18" },
    "RG Sharma": { "balls": 297, "runs": 372, "rate": "125.25" },
    "AC Gilchrist": { "balls": 291, "runs": 383, "rate": "131.62" },
    "SE Marsh": { "balls": 343, "runs": 504, "rate": "146.94" },
    "PC Valthaty": { "balls": 334, "runs": 463, "rate": "138.62" },
    "KD Karthik": { "balls": 220, "runs": 282, "rate": "128.18" },
    "AM Nayar": { "balls": 66, "runs": 61, "rate": "92.42" },
    "Sunny Singh": { "balls": 31, "runs": 43, "rate": "138.71" },
    "R McLaren": { "balls": 96, "runs": 90, "rate": "93.75" },
    "PP Chawla": { "balls": 55, "runs": 48, "rate": "87.27" },
    "P Kumar": { "balls": 31, "runs": 27, "rate": "87.10" },
    "NJ Rimmington": { "balls": 1, "runs": 1, "rate": "100.00" },
    "GC Smith": { "balls": 51, "runs": 42, "rate": "82.35" },
    "M Manhas": { "balls": 123, "runs": 114, "rate": "92.68" },
    "JD Ryder": { "balls": 196, "runs": 292, "rate": "148.98" },
    "RV Uthappa": { "balls": 205, "runs": 264, "rate": "128.78" },
    "Yuvraj Singh": { "balls": 261, "runs": 343, "rate": "131.42" },
    "AL Menaria": { "balls": 152, "runs": 180, "rate": "118.42" },
    "AM Rahane": { "balls": 98, "runs": 120, "rate": "122.45" },
    "S Badrinath": { "balls": 312, "runs": 396, "rate": "126.92" },
    "R Vinay Kumar": { "balls": 47, "runs": 50, "rate": "106.38" },
    "S Sreesanth": { "balls": 9, "runs": 1, "rate": "11.11" },
    "RP Singh": { "balls": 4, "runs": 2, "rate": "50.00" },
    "MD Mishra": { "balls": 60, "runs": 67, "rate": "111.67" },
    "WD Parnell": { "balls": 39, "runs": 37, "rate": "94.87" },
    "R Sharma": { "balls": 21, "runs": 24, "rate": "114.29" },
    "S Sohal": { "balls": 190, "runs": 249, "rate": "131.05" },
    "Z Khan": { "balls": 24, "runs": 21, "rate": "87.50" },
    "CA Pujara": { "balls": 31, "runs": 34, "rate": "109.68" },
    "JJ van der Wath": { "balls": 16, "runs": 18, "rate": "112.50" },
    "R Ninan": { "balls": 5, "runs": 3, "rate": "60.00" },
    "DL Vettori": { "balls": 28, "runs": 23, "rate": "82.14" },
    "S Aravind": { "balls": 8, "runs": 13, "rate": "162.50" },
    "SR Watson": { "balls": 252, "runs": 330, "rate": "130.95" },
    "MEK Hussey": { "balls": 413, "runs": 492, "rate": "119.13" },
    "MS Gony": { "balls": 2, "runs": 0, "rate": "0.00" },
    "MS Wade": { "balls": 33, "runs": 22, "rate": "66.67" },
    "JR Hopes": { "balls": 157, "runs": 196, "rate": "124.84" },
    "FY Fazal": { "balls": 19, "runs": 19, "rate": "100.00" },
    "AS Raut": { "balls": 58, "runs": 60, "rate": "103.45" },
    "SK Warne": { "balls": 20, "runs": 10, "rate": "50.00" },
    "A Singh": { "balls": 4, "runs": 1, "rate": "25.00" },
    "SW Tait": { "balls": 10, "runs": 10, "rate": "100.00" },
    "SK Trivedi": { "balls": 2, "runs": 0, "rate": "0.00" },
    "CL White": { "balls": 109, "runs": 104, "rate": "95.41" },
    "Y Nagar": { "balls": 100, "runs": 111, "rate": "111.00" },
    "TD Paine": { "balls": 26, "runs": 10, "rate": "38.46" },
    "M Kartik": { "balls": 14, "runs": 12, "rate": "85.71" },
    "SB Wagh": { "balls": 3, "runs": 2, "rate": "66.67" },
    "AC Thomas": { "balls": 4, "runs": 1, "rate": "25.00" },
    "JEC Franklin": { "balls": 78, "runs": 107, "rate": "137.18" },
    "A Symonds": { "balls": 138, "runs": 135, "rate": "97.83" },
    "KM Jadhav": { "balls": 23, "runs": 18, "rate": "78.26" },
    "RR Powar": { "balls": 13, "runs": 11, "rate": "84.62" },
    "Shakib Al Hasan": { "balls": 22, "runs": 29, "rate": "131.82" },
    "B Lee": { "balls": 9, "runs": 5, "rate": "55.56" },
    "L Balaji": { "balls": 2, "runs": 4, "rate": "200.00" },
    "SA Asnodkar": { "balls": 9, "runs": 9, "rate": "100.00" },
    "STR Binny": { "balls": 31, "runs": 37, "rate": "119.35" },
    "DH Yagnik": { "balls": 21, "runs": 16, "rate": "76.19" },
    "R Sathish": { "balls": 34, "runs": 25, "rate": "73.53" },
    "KA Pollard": { "balls": 132, "runs": 146, "rate": "110.61" },
    "R Ashwin": { "balls": 6, "runs": 2, "rate": "33.33" },
    "Joginder Sharma": { "balls": 1, "runs": 0, "rate": "0.00" },
    "S Randiv": { "balls": 4, "runs": 2, "rate": "50.00" },
    "DE Bollinger": { "balls": 1, "runs": 0, "rate": "0.00" },
    "BJ Haddin": { "balls": 11, "runs": 18, "rate": "163.64" },
    "CH Gayle": { "balls": 331, "runs": 608, "rate": "183.69" },
    "DJ Hussey": { "balls": 63, "runs": 64, "rate": "101.59" },
    "RJ Harris": { "balls": 38, "runs": 31, "rate": "81.58" },
    "NLTC Perera": { "balls": 27, "runs": 23, "rate": "85.19" },
    "M Muralitharan": { "balls": 7, "runs": 5, "rate": "71.43" },
    "MK Pandey": { "balls": 227, "runs": 246, "rate": "108.37" },
    "NL McCullum": { "balls": 22, "runs": 26, "rate": "118.18" },
    "JE Taylor": { "balls": 3, "runs": 3, "rate": "100.00" },
    "A Mithun": { "balls": 20, "runs": 27, "rate": "135.00" },
    "J Syed Mohammad": { "balls": 12, "runs": 15, "rate": "125.00" },
    "MR Marsh": { "balls": 49, "runs": 50, "rate": "102.04" },
    "SP Goswami": { "balls": 29, "runs": 29, "rate": "100.00" },
    "RN ten Doeschate": { "balls": 73, "runs": 107, "rate": "146.58" },
    "TR Birt": { "balls": 57, "runs": 75, "rate": "131.58" },
    "Harbhajan Singh": { "balls": 71, "runs": 103, "rate": "145.07" },
    "SL Malinga": { "balls": 9, "runs": 8, "rate": "88.89" },
    "AG Murtaza": { "balls": 5, "runs": 2, "rate": "40.00" },
    "M Kaif": { "balls": 33, "runs": 41, "rate": "124.24" },
    "Harpreet Singh": { "balls": 20, "runs": 14, "rate": "70.00" },
    "M Klinger": { "balls": 75, "runs": 73, "rate": "97.33" },
    "B Akhil": { "balls": 9, "runs": 13, "rate": "144.44" },
    "Bipul Sharma": { "balls": 18, "runs": 23, "rate": "127.78" },
    "AC Blizzard": { "balls": 87, "runs": 120, "rate": "137.93" },
    "TL Suman": { "balls": 51, "runs": 65, "rate": "127.45" },
    "AA Jhunjhunwala": { "balls": 17, "runs": 10, "rate": "58.82" },
    "MV Boucher": { "balls": 6, "runs": 6, "rate": "100.00" },
    "I Malhotra": { "balls": 4, "runs": 7, "rate": "175.00" },
    "L Ablish": { "balls": 2, "runs": 0, "rate": "0.00" },
    "CA Ingram": { "balls": 25, "runs": 21, "rate": "84.00" },
    "AB Agarkar": { "balls": 5, "runs": 7, "rate": "140.00" },
    "S Nadeem": { "balls": 1, "runs": 0, "rate": "0.00" },
    "P Parameswaran": { "balls": 1, "runs": 1, "rate": "100.00" },
    "Mandeep Singh": { "balls": 41, "runs": 47, "rate": "114.63" },
    "SD Chitnis": { "balls": 9, "runs": 9, "rate": "100.00" },
    "SJ Srivastava": { "balls": 3, "runs": 4, "rate": "133.33" },
    "CJ Ferguson": { "balls": 54, "runs": 48, "rate": "88.89" },
    "SC Ganguly": { "balls": 58, "runs": 50, "rate": "86.21" },
    "DS Kulkarni": { "balls": 4, "runs": 2, "rate": "50.00" },
    "MM Patel": { "balls": 1, "runs": 0, "rate": "0.00" },
    "AB McDonald": { "balls": 7, "runs": 8, "rate": "114.29" },
    "OA Shah": { "balls": 15, "runs": 26, "rate": "173.33" },
    "LA Pomersbach": { "balls": 39, "runs": 51, "rate": "130.77" },
    "KB Arun Karthik": { "balls": 8, "runs": 7, "rate": "87.50" },
    "MJ Lumb": { "balls": 2, "runs": 0, "rate": "0.00" },
    "S Sriram": { "balls": 7, "runs": 4, "rate": "57.14" },
    "VR Aaron": { "balls": 5, "runs": 0, "rate": "0.00" },
    "PR Shah": { "balls": 5, "runs": 5, "rate": "100.00" },
    "JDP Oram": { "balls": 3, "runs": 0, "rate": "0.00" },
    "AA Chavan": { "balls": 3, "runs": 1, "rate": "33.33" },
    "ND Doshi": { "balls": 13, "runs": 0, "rate": "0.00" },
    "B Kumar": { "balls": 1, "runs": 1, "rate": "100.00" },
    "CK Langeveldt": { "balls": 8, "runs": 8, "rate": "100.00" },
    "WP Saha": { "balls": 63, "runs": 68, "rate": "107.94" },
    "Y Gnaneswara Rao": { "balls": 17, "runs": 19, "rate": "111.76" },
    "S Rana": { "balls": 15, "runs": 18, "rate": "120.00" },
    "BA Bhatt": { "balls": 5, "runs": 0, "rate": "0.00" },
    "DJ Bravo": { "balls": 6, "runs": 11, "rate": "183.33" },
    "AN Ahmed": { "balls": 13, "runs": 18, "rate": "138.46" }
  },
  "2012": {
    "F du Plessis": { "balls": 303, "runs": 398, "rate": "131.35" },
    "M Vijay": { "balls": 265, "runs": 336, "rate": "126.79" },
    "SK Raina": { "balls": 324, "runs": 441, "rate": "136.11" },
    "DJ Bravo": { "balls": 262, "runs": 371, "rate": "141.60" },
    "JA Morkel": { "balls": 68, "runs": 107, "rate": "157.35" },
    "S Badrinath": { "balls": 181, "runs": 196, "rate": "108.29" },
    "MS Dhoni": { "balls": 275, "runs": 357, "rate": "129.82" },
    "RA Jadeja": { "balls": 151, "runs": 191, "rate": "126.49" },
    "R Ashwin": { "balls": 15, "runs": 18, "rate": "120.00" },
    "SB Jakati": { "balls": 12, "runs": 7, "rate": "58.33" },
    "DE Bollinger": { "balls": 5, "runs": 3, "rate": "60.00" },
    "RE Levi": { "balls": 73, "runs": 83, "rate": "113.70" },
    "SR Tendulkar": { "balls": 283, "runs": 324, "rate": "114.49" },
    "RG Sharma": { "balls": 341, "runs": 433, "rate": "126.98" },
    "AT Rayudu": { "balls": 252, "runs": 333, "rate": "132.14" },
    "JEC Franklin": { "balls": 222, "runs": 220, "rate": "99.10" },
    "BB McCullum": { "balls": 283, "runs": 289, "rate": "102.12" },
    "JH Kallis": { "balls": 382, "runs": 409, "rate": "107.07" },
    "G Gambhir": { "balls": 411, "runs": 590, "rate": "143.55" },
    "MK Tiwary": { "balls": 246, "runs": 260, "rate": "105.69" },
    "YK Pathan": { "balls": 166, "runs": 194, "rate": "116.87" },
    "DB Das": { "balls": 92, "runs": 126, "rate": "136.96" },
    "LR Shukla": { "balls": 57, "runs": 75, "rate": "131.58" },
    "R Bhatia": { "balls": 28, "runs": 35, "rate": "125.00" },
    "B Lee": { "balls": 20, "runs": 42, "rate": "210.00" },
    "Iqbal Abdulla": { "balls": 3, "runs": 2, "rate": "66.67" },
    "AJ Finch": { "balls": 51, "runs": 55, "rate": "107.84" },
    "V Sehwag": { "balls": 307, "runs": 495, "rate": "161.24" },
    "IK Pathan": { "balls": 126, "runs": 176, "rate": "139.68" },
    "GJ Maxwell": { "balls": 11, "runs": 6, "rate": "54.55" },
    "MK Pandey": { "balls": 110, "runs": 143, "rate": "130.00" },
    "WD Parnell": { "balls": 27, "runs": 19, "rate": "70.37" },
    "SC Ganguly": { "balls": 271, "runs": 268, "rate": "98.89" },
    "RV Uthappa": { "balls": 342, "runs": 405, "rate": "118.42" },
    "CJ Ferguson": { "balls": 63, "runs": 50, "rate": "79.37" },
    "SPD Smith": { "balls": 262, "runs": 362, "rate": "138.17" },
    "MN Samuels": { "balls": 123, "runs": 124, "rate": "100.81" },
    "B Kumar": { "balls": 40, "runs": 40, "rate": "100.00" },
    "M Kartik": { "balls": 21, "runs": 26, "rate": "123.81" },
    "KD Karthik": { "balls": 212, "runs": 238, "rate": "112.26" },
    "SA Yadav": { "balls": 4, "runs": 0, "rate": "0.00" },
    "KA Pollard": { "balls": 158, "runs": 220, "rate": "139.24" },
    "Harbhajan Singh": { "balls": 80, "runs": 108, "rate": "135.00" },
    "SL Malinga": { "balls": 53, "runs": 55, "rate": "103.77" },
    "PP Ojha": { "balls": 13, "runs": 4, "rate": "30.77" },
    "MM Patel": { "balls": 7, "runs": 2, "rate": "28.57" },
    "R Dravid": { "balls": 412, "runs": 462, "rate": "112.14" },
    "AM Rahane": { "balls": 433, "runs": 560, "rate": "129.33" },
    "AL Menaria": { "balls": 200, "runs": 220, "rate": "110.00" },
    "BJ Hodge": { "balls": 173, "runs": 245, "rate": "141.62" },
    "OA Shah": { "balls": 255, "runs": 340, "rate": "133.33" },
    "KK Cooper": { "balls": 19, "runs": 38, "rate": "200.00" },
    "AC Gilchrist": { "balls": 142, "runs": 172, "rate": "121.13" },
    "PC Valthaty": { "balls": 51, "runs": 30, "rate": "58.82" },
    "SE Marsh": { "balls": 280, "runs": 336, "rate": "120.00" },
    "AM Nayar": { "balls": 49, "runs": 45, "rate": "91.84" },
    "Mandeep Singh": { "balls": 341, "runs": 432, "rate": "126.69" },
    "DJ Hussey": { "balls": 305, "runs": 396, "rate": "129.84" },
    "Bipul Sharma": { "balls": 47, "runs": 72, "rate": "153.19" },
    "PP Chawla": { "balls": 88, "runs": 106, "rate": "120.45" },
    "JP Faulkner": { "balls": 13, "runs": 14, "rate": "107.69" },
    "P Kumar": { "balls": 29, "runs": 35, "rate": "120.69" },
    "Harmeet Singh": { "balls": 7, "runs": 15, "rate": "214.29" },
    "AB McDonald": { "balls": 35, "runs": 47, "rate": "134.29" },
    "CA Pujara": { "balls": 22, "runs": 17, "rate": "77.27" },
    "V Kohli": { "balls": 325, "runs": 364, "rate": "112.00" },
    "AB de Villiers": { "balls": 197, "runs": 319, "rate": "161.93" },
    "SS Tiwary": { "balls": 167, "runs": 191, "rate": "114.37" },
    "MA Agarwal": { "balls": 157, "runs": 225, "rate": "143.31" },
    "DL Vettori": { "balls": 26, "runs": 31, "rate": "119.23" },
    "R Vinay Kumar": { "balls": 62, "runs": 68, "rate": "109.68" },
    "HV Patel": { "balls": 15, "runs": 15, "rate": "100.00" },
    "NV Ojha": { "balls": 223, "runs": 255, "rate": "114.35" },
    "Y Venugopal Rao": { "balls": 126, "runs": 132, "rate": "104.76" },
    "Y Nagar": { "balls": 133, "runs": 153, "rate": "115.04" },
    "DAJ Bracewell": { "balls": 9, "runs": 12, "rate": "133.33" },
    "M Morkel": { "balls": 5, "runs": 3, "rate": "60.00" },
    "DJ Harris": { "balls": 101, "runs": 111, "rate": "109.90" },
    "S Dhawan": { "balls": 438, "runs": 569, "rate": "129.91" },
    "PA Patel": { "balls": 164, "runs": 194, "rate": "118.29" },
    "CL White": { "balls": 319, "runs": 479, "rate": "150.16" },
    "B Chipli": { "balls": 35, "runs": 37, "rate": "105.71" },
    "DT Christian": { "balls": 118, "runs": 145, "rate": "122.88" },
    "MS Gony": { "balls": 8, "runs": 4, "rate": "50.00" },
    "DB Ravi Teja": { "balls": 4, "runs": 4, "rate": "100.00" },
    "DW Steyn": { "balls": 21, "runs": 19, "rate": "90.48" },
    "Ankit Sharma": { "balls": 13, "runs": 18, "rate": "138.46" },
    "SP Goswami": { "balls": 67, "runs": 69, "rate": "102.99" },
    "SP Narine": { "balls": 7, "runs": 9, "rate": "128.57" },
    "JD Ryder": { "balls": 211, "runs": 256, "rate": "121.33" },
    "R Sharma": { "balls": 11, "runs": 2, "rate": "18.18" },
    "AD Mascarenhas": { "balls": 16, "runs": 14, "rate": "87.50" },
    "KC Sangakkara": { "balls": 183, "runs": 200, "rate": "109.29" },
    "A Mishra": { "balls": 20, "runs": 16, "rate": "80.00" },
    "TL Suman": { "balls": 19, "runs": 15, "rate": "78.95" },
    "MS Bisla": { "balls": 160, "runs": 213, "rate": "133.13" },
    "RN ten Doeschate": { "balls": 21, "runs": 21, "rate": "100.00" },
    "Shakib Al Hasan": { "balls": 73, "runs": 91, "rate": "124.66" },
    "CH Gayle": { "balls": 451, "runs": 733, "rate": "162.53" },
    "Z Khan": { "balls": 17, "runs": 12, "rate": "70.59" },
    "KP Pietersen": { "balls": 207, "runs": 305, "rate": "147.34" },
    "DPMD Jayawardene": { "balls": 298, "runs": 335, "rate": "112.42" },
    "J Botha": { "balls": 54, "runs": 58, "rate": "107.41" },
    "AA Chavan": { "balls": 8, "runs": 11, "rate": "137.50" },
    "A Singh": { "balls": 2, "runs": 0, "rate": "0.00" },
    "SK Trivedi": { "balls": 6, "runs": 5, "rate": "83.33" },
    "GB Hogg": { "balls": 16, "runs": 15, "rate": "93.75" },
    "RR Bhatkal": { "balls": 2, "runs": 0, "rate": "0.00" },
    "AD Mathews": { "balls": 108, "runs": 127, "rate": "117.59" },
    "M Manhas": { "balls": 96, "runs": 120, "rate": "125.00" },
    "A Nehra": { "balls": 12, "runs": 11, "rate": "91.67" },
    "AB Dinda": { "balls": 5, "runs": 2, "rate": "40.00" },
    "JP Duminy": { "balls": 190, "runs": 244, "rate": "128.42" },
    "AA Jhunjhunwala": { "balls": 26, "runs": 24, "rate": "92.31" },
    "LRPL Taylor": { "balls": 171, "runs": 197, "rate": "115.20" },
    "P Dogra": { "balls": 24, "runs": 15, "rate": "62.50" },
    "BA Bhatt": { "balls": 2, "runs": 6, "rate": "300.00" },
    "M Kaif": { "balls": 16, "runs": 14, "rate": "87.50" },
    "S Aravind": { "balls": 8, "runs": 14, "rate": "175.00" },
    "M Muralitharan": { "balls": 9, "runs": 6, "rate": "66.67" },
    "DJ Jacobs": { "balls": 10, "runs": 0, "rate": "0.00" },
    "CJ McKay": { "balls": 15, "runs": 8, "rate": "53.33" },
    "RP Singh": { "balls": 12, "runs": 6, "rate": "50.00" },
    "DH Yagnik": { "balls": 13, "runs": 25, "rate": "192.31" },
    "TM Dilshan": { "balls": 259, "runs": 285, "rate": "110.04" },
    "DA Warner": { "balls": 155, "runs": 256, "rate": "165.16" },
    "N Saini": { "balls": 140, "runs": 140, "rate": "100.00" },
    "DA Miller": { "balls": 75, "runs": 98, "rate": "130.67" },
    "Azhar Mahmood": { "balls": 142, "runs": 186, "rate": "130.99" },
    "P Negi": { "balls": 29, "runs": 36, "rate": "124.14" },
    "NLTC Perera": { "balls": 9, "runs": 4, "rate": "44.44" },
    "IR Jaggi": { "balls": 21, "runs": 15, "rate": "71.43" },
    "STR Binny": { "balls": 67, "runs": 90, "rate": "134.33" },
    "RJ Peterson": { "balls": 30, "runs": 32, "rate": "106.67" },
    "AC Thomas": { "balls": 15, "runs": 19, "rate": "126.67" },
    "AC Blizzard": { "balls": 3, "runs": 0, "rate": "0.00" },
    "WP Saha": { "balls": 14, "runs": 6, "rate": "42.86" },
    "KMDN Kulasekara": { "balls": 3, "runs": 5, "rate": "166.67" },
    "A Ashish Reddy": { "balls": 29, "runs": 35, "rate": "120.69" },
    "V Pratap Singh": { "balls": 1, "runs": 0, "rate": "0.00" },
    "MEK Hussey": { "balls": 236, "runs": 261, "rate": "110.59" },
    "BB Samantray": { "balls": 2, "runs": 2, "rate": "100.00" },
    "MJ Clarke": { "balls": 94, "runs": 98, "rate": "104.26" },
    "SR Watson": { "balls": 168, "runs": 255, "rate": "151.79" },
    "AUK Pathan": { "balls": 7, "runs": 6, "rate": "85.71" },
    "Gurkeerat Singh": { "balls": 52, "runs": 86, "rate": "165.38" },
    "RJ Harris": { "balls": 11, "runs": 18, "rate": "163.64" },
    "DR Smith": { "balls": 97, "runs": 157, "rate": "161.86" },
    "J Syed Mohammad": { "balls": 1, "runs": 4, "rate": "400.00" },
    "S Nadeem": { "balls": 2, "runs": 0, "rate": "0.00" },
    "VR Aaron": { "balls": 3, "runs": 1, "rate": "33.33" },
    "AP Majumdar": { "balls": 76, "runs": 87, "rate": "114.47" },
    "SD Chitnis": { "balls": 62, "runs": 66, "rate": "106.45" },
    "PA Reddy": { "balls": 59, "runs": 73, "rate": "123.73" },
    "J Theron": { "balls": 6, "runs": 7, "rate": "116.67" },
    "S Anirudha": { "balls": 6, "runs": 19, "rate": "316.67" },
    "MD Mishra": { "balls": 4, "runs": 4, "rate": "100.00" },
    "K Upadhyay": { "balls": 8, "runs": 11, "rate": "137.50" },
    "HH Gibbs": { "balls": 88, "runs": 81, "rate": "92.05" },
    "P Awana": { "balls": 5, "runs": 4, "rate": "80.00" },
    "UBT Chand": { "balls": 34, "runs": 36, "rate": "105.88" },
    "AD Russell": { "balls": 26, "runs": 47, "rate": "180.77" },
    "UT Yadav": { "balls": 7, "runs": 2, "rate": "28.57" },
    "A Chandila": { "balls": 1, "runs": 0, "rate": "0.00" },
    "CA Lynn": { "balls": 9, "runs": 6, "rate": "66.67" },
    "Harpreet Singh": { "balls": 6, "runs": 6, "rate": "100.00" },
    "AG Murtaza": { "balls": 5, "runs": 3, "rate": "60.00" },
    "P Parameswaran": { "balls": 1, "runs": 0, "rate": "0.00" },
    "DS Kulkarni": { "balls": 5, "runs": 10, "rate": "200.00" },
    "Sunny Gupta": { "balls": 1, "runs": 0, "rate": "0.00" }
  },
  "2013": {
    "UBT Chand": { "balls": 157, "runs": 158, "rate": "100.64" },
    "DPMD Jayawardene": { "balls": 312, "runs": 331, "rate": "106.09" },
    "DA Warner": { "balls": 324, "runs": 410, "rate": "126.54" },
    "MC Juneja": { "balls": 128, "runs": 125, "rate": "97.66" },
    "NV Ojha": { "balls": 10, "runs": 9, "rate": "90.00" },
    "J Botha": { "balls": 52, "runs": 43, "rate": "82.69" },
    "IK Pathan": { "balls": 155, "runs": 153, "rate": "98.71" },
    "AD Russell": { "balls": 14, "runs": 11, "rate": "78.57" },
    "S Nadeem": { "balls": 27, "runs": 14, "rate": "51.85" },
    "A Nehra": { "balls": 8, "runs": 1, "rate": "12.50" },
    "MS Bisla": { "balls": 235, "runs": 255, "rate": "108.51" },
    "G Gambhir": { "balls": 342, "runs": 406, "rate": "118.71" },
    "JH Kallis": { "balls": 322, "runs": 311, "rate": "96.58" },
    "MK Tiwary": { "balls": 140, "runs": 146, "rate": "104.29" },
    "EJG Morgan": { "balls": 240, "runs": 307, "rate": "127.92" },
    "YK Pathan": { "balls": 239, "runs": 332, "rate": "138.91" },
    "CH Gayle": { "balls": 454, "runs": 720, "rate": "158.59" },
    "TM Dilshan": { "balls": 92, "runs": 76, "rate": "82.61" },
    "V Kohli": { "balls": 454, "runs": 639, "rate": "140.75" },
    "MA Agarwal": { "balls": 62, "runs": 67, "rate": "108.06" },
    "DT Christian": { "balls": 15, "runs": 6, "rate": "40.00" },
    "KK Nair": { "balls": 12, "runs": 9, "rate": "75.00" },
    "KB Arun Karthik": { "balls": 38, "runs": 41, "rate": "107.89" },
    "RT Ponting": { "balls": 75, "runs": 52, "rate": "69.33" },
    "SR Tendulkar": { "balls": 231, "runs": 287, "rate": "124.24" },
    "KD Karthik": { "balls": 409, "runs": 510, "rate": "124.69" },
    "RG Sharma": { "balls": 408, "runs": 538, "rate": "131.86" },
    "AT Rayudu": { "balls": 229, "runs": 265, "rate": "115.72" },
    "Harbhajan Singh": { "balls": 79, "runs": 116, "rate": "146.84" },
    "KA Pollard": { "balls": 278, "runs": 420, "rate": "151.08" },
    "PA Reddy": { "balls": 101, "runs": 91, "rate": "90.10" },
    "PA Patel": { "balls": 255, "runs": 294, "rate": "115.29" },
    "KC Sangakkara": { "balls": 136, "runs": 120, "rate": "88.24" },
    "CL White": { "balls": 196, "runs": 226, "rate": "115.31" },
    "NLTC Perera": { "balls": 163, "runs": 235, "rate": "144.17" },
    "GH Vihari": { "balls": 277, "runs": 241, "rate": "87.00" },
    "A Ashish Reddy": { "balls": 89, "runs": 125, "rate": "140.45" },
    "DB Ravi Teja": { "balls": 17, "runs": 14, "rate": "82.35" },
    "RV Uthappa": { "balls": 368, "runs": 434, "rate": "117.93" },
    "MK Pandey": { "balls": 137, "runs": 136, "rate": "99.27" },
    "MN Samuels": { "balls": 18, "runs": 8, "rate": "44.44" },
    "Yuvraj Singh": { "balls": 190, "runs": 238, "rate": "125.26" },
    "LRPL Taylor": { "balls": 76, "runs": 63, "rate": "82.89" },
    "AM Nayar": { "balls": 73, "runs": 66, "rate": "90.41" },
    "MR Marsh": { "balls": 106, "runs": 140, "rate": "132.08" },
    "AD Mathews": { "balls": 139, "runs": 172, "rate": "123.74" },
    "B Kumar": { "balls": 71, "runs": 52, "rate": "73.24" },
    "R Sharma": { "balls": 17, "runs": 11, "rate": "64.71" },
    "AB Dinda": { "balls": 11, "runs": 9, "rate": "81.82" },
    "MDKJ Perera": { "balls": 13, "runs": 14, "rate": "107.69" },
    "AM Rahane": { "balls": 458, "runs": 488, "rate": "106.55" },
    "R Dravid": { "balls": 424, "runs": 471, "rate": "111.08" },
    "STR Binny": { "balls": 199, "runs": 293, "rate": "147.24" },
    "BJ Hodge": { "balls": 217, "runs": 293, "rate": "135.02" },
    "AL Menaria": { "balls": 2, "runs": 1, "rate": "50.00" },
    "KK Cooper": { "balls": 22, "runs": 39, "rate": "177.27" },
    "R Shukla": { "balls": 2, "runs": 1, "rate": "50.00" },
    "DR Smith": { "balls": 340, "runs": 418, "rate": "122.94" },
    "MEK Hussey": { "balls": 565, "runs": 733, "rate": "129.73" },
    "M Vijay": { "balls": 286, "runs": 312, "rate": "109.09" },
    "SK Raina": { "balls": 364, "runs": 548, "rate": "150.55" },
    "DJ Bravo": { "balls": 106, "runs": 121, "rate": "114.15" },
    "S Badrinath": { "balls": 120, "runs": 124, "rate": "103.33" },
    "MS Dhoni": { "balls": 280, "runs": 461, "rate": "164.64" },
    "RA Jadeja": { "balls": 134, "runs": 201, "rate": "150.00" },
    "R Ashwin": { "balls": 49, "runs": 35, "rate": "71.43" },
    "B Laughlin": { "balls": 9, "runs": 4, "rate": "44.44" },
    "AS Rajpoot": { "balls": 6, "runs": 2, "rate": "33.33" },
    "TL Suman": { "balls": 58, "runs": 52, "rate": "89.66" },
    "AC Gilchrist": { "balls": 229, "runs": 294, "rate": "128.38" },
    "Mandeep Singh": { "balls": 223, "runs": 260, "rate": "116.59" },
    "M Vohra": { "balls": 117, "runs": 161, "rate": "137.61" },
    "DJ Hussey": { "balls": 208, "runs": 235, "rate": "112.98" },
    "MC Henriques": { "balls": 124, "runs": 165, "rate": "133.06" },
    "R Vinay Kumar": { "balls": 44, "runs": 70, "rate": "159.09" },
    "M Kartik": { "balls": 3, "runs": 2, "rate": "66.67" },
    "JD Unadkat": { "balls": 2, "runs": 2, "rate": "100.00" },
    "DW Steyn": { "balls": 36, "runs": 53, "rate": "147.22" },
    "SR Watson": { "balls": 378, "runs": 543, "rate": "143.65" },
    "DH Yagnik": { "balls": 93, "runs": 125, "rate": "134.41" },
    "S Sreesanth": { "balls": 4, "runs": 1, "rate": "25.00" },
    "LR Shukla": { "balls": 12, "runs": 3, "rate": "25.00" },
    "R Bhatia": { "balls": 80, "runs": 99, "rate": "123.75" },
    "B Lee": { "balls": 12, "runs": 21, "rate": "175.00" },
    "Mohammed Shami": { "balls": 10, "runs": 5, "rate": "50.00" },
    "SP Narine": { "balls": 19, "runs": 21, "rate": "110.53" },
    "BMAJ Mendis": { "balls": 27, "runs": 23, "rate": "85.19" },
    "KM Jadhav": { "balls": 123, "runs": 152, "rate": "123.58" },
    "M Morkel": { "balls": 29, "runs": 57, "rate": "196.55" },
    "UT Yadav": { "balls": 38, "runs": 38, "rate": "100.00" },
    "Gurkeerat Singh": { "balls": 95, "runs": 108, "rate": "113.68" },
    "Azhar Mahmood": { "balls": 154, "runs": 196, "rate": "127.27" },
    "R Sathish": { "balls": 76, "runs": 109, "rate": "143.42" },
    "PP Chawla": { "balls": 57, "runs": 64, "rate": "112.28" },
    "RJ Harris": { "balls": 5, "runs": 2, "rate": "40.00" },
    "P Kumar": { "balls": 38, "runs": 47, "rate": "123.68" },
    "P Awana": { "balls": 9, "runs": 1, "rate": "11.11" },
    "R McLaren": { "balls": 6, "runs": 3, "rate": "50.00" },
    "PJ Sangwan": { "balls": 2, "runs": 4, "rate": "200.00" },
    "AB de Villiers": { "balls": 223, "runs": 373, "rate": "167.26" },
    "JP Faulkner": { "balls": 57, "runs": 57, "rate": "100.00" },
    "AJ Finch": { "balls": 335, "runs": 456, "rate": "136.12" },
    "V Sehwag": { "balls": 229, "runs": 295, "rate": "128.82" },
    "A Mishra": { "balls": 95, "runs": 89, "rate": "93.68" },
    "R Rampaul": { "balls": 36, "runs": 38, "rate": "105.56" },
    "CH Morris": { "balls": 16, "runs": 14, "rate": "87.50" },
    "KV Sharma": { "balls": 86, "runs": 85, "rate": "98.84" },
    "SV Samson": { "balls": 178, "runs": 206, "rate": "115.73" },
    "SPD Smith": { "balls": 132, "runs": 159, "rate": "120.45" },
    "S Anirudha": { "balls": 2, "runs": 0, "rate": "0.00" },
    "JA Morkel": { "balls": 37, "runs": 46, "rate": "124.32" },
    "DA Miller": { "balls": 253, "runs": 418, "rate": "165.22" },
    "MS Gony": { "balls": 25, "runs": 45, "rate": "180.00" },
    "DB Das": { "balls": 74, "runs": 75, "rate": "101.35" },
    "SMSM Senanayake": { "balls": 16, "runs": 10, "rate": "62.50" },
    "BJ Rohrer": { "balls": 141, "runs": 193, "rate": "136.88" },
    "KL Rahul": { "balls": 16, "runs": 20, "rate": "125.00" },
    "AB McDonald": { "balls": 2, "runs": 0, "rate": "0.00" },
    "J Syed Mohammad": { "balls": 13, "runs": 10, "rate": "76.92" },
    "Q de Kock": { "balls": 15, "runs": 6, "rate": "40.00" },
    "BB Samantray": { "balls": 111, "runs": 123, "rate": "110.81" },
    "R Dhawan": { "balls": 21, "runs": 21, "rate": "100.00" },
    "MG Johnson": { "balls": 36, "runs": 39, "rate": "108.33" },
    "SL Malinga": { "balls": 18, "runs": 9, "rate": "50.00" },
    "PP Ojha": { "balls": 4, "runs": 2, "rate": "50.00" },
    "AB Agarkar": { "balls": 16, "runs": 12, "rate": "75.00" },
    "PC Valthaty": { "balls": 17, "runs": 6, "rate": "35.29" },
    "AD Mascarenhas": { "balls": 5, "runs": 5, "rate": "100.00" },
    "L Balaji": { "balls": 10, "runs": 9, "rate": "90.00" },
    "A Chandila": { "balls": 6, "runs": 4, "rate": "66.67" },
    "SW Tait": { "balls": 3, "runs": 1, "rate": "33.33" },
    "SK Trivedi": { "balls": 7, "runs": 3, "rate": "42.86" },
    "SS Tiwary": { "balls": 106, "runs": 109, "rate": "102.83" },
    "LJ Wright": { "balls": 59, "runs": 106, "rate": "179.66" },
    "M Manhas": { "balls": 17, "runs": 13, "rate": "76.47" },
    "AG Murtaza": { "balls": 4, "runs": 5, "rate": "125.00" },
    "IC Pandey": { "balls": 2, "runs": 0, "rate": "0.00" },
    "SE Marsh": { "balls": 249, "runs": 300, "rate": "120.48" },
    "CM Gautam": { "balls": 34, "runs": 44, "rate": "129.41" },
    "S Dhawan": { "balls": 253, "runs": 311, "rate": "122.92" },
    "X Thalaivan Sargunam": { "balls": 17, "runs": 10, "rate": "58.82" },
    "DJG Sammy": { "balls": 132, "runs": 174, "rate": "131.82" },
    "WP Saha": { "balls": 56, "runs": 70, "rate": "125.00" },
    "BB McCullum": { "balls": 7, "runs": 6, "rate": "85.71" },
    "A Mukund": { "balls": 21, "runs": 19, "rate": "90.48" },
    "OA Shah": { "balls": 23, "runs": 25, "rate": "108.70" },
    "KW Richardson": { "balls": 36, "runs": 34, "rate": "94.44" },
    "S Narwal": { "balls": 15, "runs": 23, "rate": "153.33" },
    "LA Pomersbach": { "balls": 59, "runs": 58, "rate": "98.31" },
    "BAW Mendis": { "balls": 4, "runs": 2, "rate": "50.00" },
    "CA Pujara": { "balls": 99, "runs": 92, "rate": "92.93" },
    "MM Sharma": { "balls": 5, "runs": 0, "rate": "0.00" },
    "Iqbal Abdulla": { "balls": 14, "runs": 8, "rate": "57.14" },
    "RN ten Doeschate": { "balls": 63, "runs": 85, "rate": "134.92" },
    "UA Birla": { "balls": 14, "runs": 7, "rate": "50.00" },
    "M Rawat": { "balls": 11, "runs": 5, "rate": "45.45" },
    "WD Parnell": { "balls": 7, "runs": 5, "rate": "71.43" },
    "Parvez Rasool": { "balls": 9, "runs": 5, "rate": "55.56" },
    "K Upadhyay": { "balls": 1, "runs": 1, "rate": "100.00" },
    "GJ Maxwell": { "balls": 27, "runs": 36, "rate": "133.33" },
    "Harmeet Singh": { "balls": 4, "runs": 3, "rate": "75.00" },
    "Sandeep Sharma": { "balls": 1, "runs": 0, "rate": "0.00" },
    "A Mithun": { "balls": 2, "runs": 2, "rate": "100.00" },
    "RE van der Merwe": { "balls": 25, "runs": 22, "rate": "88.00" },
    "S Kaul": { "balls": 9, "runs": 7, "rate": "77.78" },
    "AP Tare": { "balls": 84, "runs": 123, "rate": "146.43" },
    "Sachin Baby": { "balls": 7, "runs": 3, "rate": "42.86" },
    "PV Tambe": { "balls": 6, "runs": 3, "rate": "50.00" },
    "NM Coulter-Nile": { "balls": 6, "runs": 9, "rate": "150.00" },
    "RV Gomez": { "balls": 1, "runs": 4, "rate": "400.00" },
    "B Chipli": { "balls": 17, "runs": 16, "rate": "94.12" },
    "P Dogra": { "balls": 8, "runs": 5, "rate": "62.50" }
  },
  "2014": {
    "G Gambhir": { "balls": 290, "runs": 335, "rate": "115.52" },
    "JH Kallis": { "balls": 128, "runs": 151, "rate": "117.97" },
    "MK Pandey": { "balls": 343, "runs": 409, "rate": "119.24" },
    "RV Uthappa": { "balls": 478, "runs": 660, "rate": "138.08" },
    "YK Pathan": { "balls": 165, "runs": 268, "rate": "162.42" },
    "Shakib Al Hasan": { "balls": 153, "runs": 229, "rate": "149.67" },
    "SA Yadav": { "balls": 115, "runs": 164, "rate": "142.61" },
    "MEK Hussey": { "balls": 182, "runs": 209, "rate": "114.84" },
    "AP Tare": { "balls": 97, "runs": 126, "rate": "129.90" },
    "AT Rayudu": { "balls": 286, "runs": 361, "rate": "126.22" },
    "RG Sharma": { "balls": 302, "runs": 390, "rate": "129.14" },
    "KA Pollard": { "balls": 202, "runs": 273, "rate": "135.15" },
    "CJ Anderson": { "balls": 181, "runs": 265, "rate": "146.41" },
    "Harbhajan Singh": { "balls": 25, "runs": 28, "rate": "112.00" },
    "CM Gautam": { "balls": 110, "runs": 121, "rate": "110.00" },
    "MA Agarwal": { "balls": 91, "runs": 115, "rate": "126.37" },
    "M Vijay": { "balls": 192, "runs": 207, "rate": "107.81" },
    "KD Karthik": { "balls": 258, "runs": 325, "rate": "125.97" },
    "MK Tiwary": { "balls": 118, "runs": 152, "rate": "128.81" },
    "JP Duminy": { "balls": 302, "runs": 410, "rate": "135.76" },
    "LRPL Taylor": { "balls": 59, "runs": 59, "rate": "100.00" },
    "PA Patel": { "balls": 185, "runs": 205, "rate": "110.81" },
    "NJ Maddinson": { "balls": 14, "runs": 16, "rate": "114.29" },
    "V Kohli": { "balls": 294, "runs": 359, "rate": "122.11" },
    "Yuvraj Singh": { "balls": 274, "runs": 376, "rate": "137.23" },
    "DR Smith": { "balls": 415, "runs": 566, "rate": "136.39" },
    "BB McCullum": { "balls": 333, "runs": 405, "rate": "121.62" },
    "SK Raina": { "balls": 357, "runs": 523, "rate": "146.50" },
    "MS Dhoni": { "balls": 247, "runs": 371, "rate": "150.20" },
    "DJ Bravo": { "balls": 3, "runs": 8, "rate": "266.67" },
    "CA Pujara": { "balls": 123, "runs": 125, "rate": "101.63" },
    "V Sehwag": { "balls": 314, "runs": 455, "rate": "144.90" },
    "GJ Maxwell": { "balls": 291, "runs": 552, "rate": "189.69" },
    "AR Patel": { "balls": 60, "runs": 62, "rate": "103.33" },
    "DA Miller": { "balls": 299, "runs": 446, "rate": "149.16" },
    "GJ Bailey": { "balls": 188, "runs": 257, "rate": "136.70" },
    "AJ Finch": { "balls": 261, "runs": 309, "rate": "118.39" },
    "DA Warner": { "balls": 371, "runs": 528, "rate": "142.32" },
    "S Dhawan": { "balls": 317, "runs": 377, "rate": "118.93" },
    "KL Rahul": { "balls": 164, "runs": 166, "rate": "101.22" },
    "DJG Sammy": { "balls": 91, "runs": 108, "rate": "118.68" },
    "Y Venugopal Rao": { "balls": 63, "runs": 71, "rate": "112.70" },
    "KV Sharma": { "balls": 29, "runs": 42, "rate": "144.83" },
    "AM Nayar": { "balls": 46, "runs": 43, "rate": "93.48" },
    "SV Samson": { "balls": 273, "runs": 339, "rate": "124.18" },
    "AM Rahane": { "balls": 291, "runs": 339, "rate": "116.49" },
    "SR Watson": { "balls": 198, "runs": 246, "rate": "124.24" },
    "STR Binny": { "balls": 121, "runs": 123, "rate": "101.65" },
    "BJ Hodge": { "balls": 72, "runs": 101, "rate": "140.28" },
    "R Bhatia": { "balls": 53, "runs": 67, "rate": "126.42" },
    "JP Faulkner": { "balls": 93, "runs": 181, "rate": "194.62" },
    "Z Khan": { "balls": 7, "runs": 8, "rate": "114.29" },
    "SL Malinga": { "balls": 4, "runs": 2, "rate": "50.00" },
    "PP Ojha": { "balls": 8, "runs": 4, "rate": "50.00" },
    "JJ Bumrah": { "balls": 3, "runs": 1, "rate": "33.33" },
    "AB de Villiers": { "balls": 248, "runs": 395, "rate": "159.27" },
    "JDS Neesham": { "balls": 46, "runs": 42, "rate": "91.30" },
    "SPD Smith": { "balls": 112, "runs": 152, "rate": "135.71" },
    "WP Saha": { "balls": 249, "runs": 362, "rate": "145.38" },
    "F du Plessis": { "balls": 235, "runs": 303, "rate": "128.94" },
    "RA Jadeja": { "balls": 109, "runs": 146, "rate": "133.94" },
    "M Manhas": { "balls": 23, "runs": 35, "rate": "152.17" },
    "R Ashwin": { "balls": 45, "runs": 45, "rate": "100.00" },
    "S Nadeem": { "balls": 19, "runs": 7, "rate": "36.84" },
    "Mohammed Shami": { "balls": 7, "runs": 3, "rate": "42.86" },
    "JD Unadkat": { "balls": 6, "runs": 1, "rate": "16.67" },
    "MG Johnson": { "balls": 50, "runs": 56, "rate": "112.00" },
    "IK Pathan": { "balls": 54, "runs": 55, "rate": "101.85" },
    "DW Steyn": { "balls": 26, "runs": 22, "rate": "84.62" },
    "A Mishra": { "balls": 7, "runs": 4, "rate": "57.14" },
    "B Kumar": { "balls": 4, "runs": 1, "rate": "25.00" },
    "TG Southee": { "balls": 4, "runs": 4, "rate": "100.00" },
    "DS Kulkarni": { "balls": 25, "runs": 35, "rate": "140.00" },
    "PV Tambe": { "balls": 9, "runs": 5, "rate": "55.56" },
    "CA Lynn": { "balls": 49, "runs": 58, "rate": "118.37" },
    "R Vinay Kumar": { "balls": 6, "runs": 4, "rate": "66.67" },
    "YV Takawale": { "balls": 91, "runs": 104, "rate": "114.29" },
    "JA Morkel": { "balls": 41, "runs": 45, "rate": "109.76" },
    "Q de Kock": { "balls": 130, "runs": 153, "rate": "117.69" },
    "KP Pietersen": { "balls": 233, "runs": 294, "rate": "126.18" },
    "S Rana": { "balls": 64, "runs": 73, "rate": "114.06" },
    "MA Starc": { "balls": 84, "runs": 85, "rate": "101.19" },
    "R Rampaul": { "balls": 13, "runs": 13, "rate": "100.00" },
    "AB Dinda": { "balls": 12, "runs": 4, "rate": "33.33" },
    "KK Nair": { "balls": 232, "runs": 330, "rate": "142.24" },
    "R Dhawan": { "balls": 75, "runs": 82, "rate": "109.33" },
    "L Balaji": { "balls": 3, "runs": 1, "rate": "33.33" },
    "Sandeep Sharma": { "balls": 5, "runs": 2, "rate": "40.00" },
    "PP Chawla": { "balls": 19, "runs": 31, "rate": "163.16" },
    "SP Narine": { "balls": 14, "runs": 10, "rate": "71.43" },
    "UT Yadav": { "balls": 4, "runs": 2, "rate": "50.00" },
    "M Morkel": { "balls": 3, "runs": 4, "rate": "133.33" },
    "KM Jadhav": { "balls": 99, "runs": 149, "rate": "150.51" },
    "CH Gayle": { "balls": 184, "runs": 196, "rate": "106.52" },
    "VR Aaron": { "balls": 33, "runs": 35, "rate": "106.06" },
    "MS Bisla": { "balls": 9, "runs": 3, "rate": "33.33" },
    "NV Ojha": { "balls": 160, "runs": 232, "rate": "145.00" },
    "BR Dunk": { "balls": 35, "runs": 40, "rate": "114.29" },
    "AD Russell": { "balls": 8, "runs": 2, "rate": "25.00" },
    "RR Rossouw": { "balls": 41, "runs": 39, "rate": "95.12" },
    "HV Patel": { "balls": 7, "runs": 13, "rate": "185.71" },
    "RN ten Doeschate": { "balls": 33, "runs": 52, "rate": "157.58" },
    "LR Shukla": { "balls": 38, "runs": 31, "rate": "81.58" },
    "Mandeep Singh": { "balls": 25, "runs": 24, "rate": "96.00" },
    "MC Henriques": { "balls": 14, "runs": 9, "rate": "64.29" },
    "KW Richardson": { "balls": 2, "runs": 1, "rate": "50.00" },
    "Shivam Sharma": { "balls": 3, "runs": 5, "rate": "166.67" },
    "YS Chahal": { "balls": 1, "runs": 1, "rate": "100.00" },
    "R Shukla": { "balls": 21, "runs": 18, "rate": "85.71" },
    "LMP Simmons": { "balls": 290, "runs": 394, "rate": "135.86" },
    "VH Zol": { "balls": 26, "runs": 29, "rate": "111.54" },
    "Ankit Sharma": { "balls": 30, "runs": 34, "rate": "113.33" },
    "DH Yagnik": { "balls": 6, "runs": 4, "rate": "66.67" },
    "M Vohra": { "balls": 232, "runs": 324, "rate": "139.66" },
    "KK Cooper": { "balls": 26, "runs": 39, "rate": "150.00" },
    "BCJ Cutting": { "balls": 6, "runs": 8, "rate": "133.33" },
    "Imran Tahir": { "balls": 10, "runs": 8, "rate": "80.00" },
    "S Kaul": { "balls": 2, "runs": 2, "rate": "100.00" },
    "DJ Hussey": { "balls": 94, "runs": 116, "rate": "123.40" },
    "AN Ahmed": { "balls": 1, "runs": 4, "rate": "400.00" },
    "UBT Chand": { "balls": 9, "runs": 2, "rate": "22.22" },
    "WD Parnell": { "balls": 2, "runs": 2, "rate": "100.00" },
    "SE Marsh": { "balls": 52, "runs": 70, "rate": "134.62" },
    "BE Hendricks": { "balls": 1, "runs": 0, "rate": "0.00" },
    "S Gopal": { "balls": 10, "runs": 11, "rate": "110.00" },
    "M de Lange": { "balls": 2, "runs": 1, "rate": "50.00" },
    "R Tewatia": { "balls": 13, "runs": 16, "rate": "123.08" },
    "VS Malik": { "balls": 2, "runs": 1, "rate": "50.00" },
    "S Anirudha": { "balls": 5, "runs": 3, "rate": "60.00" },
    "JO Holder": { "balls": 12, "runs": 16, "rate": "133.33" },
    "Karanveer Singh": { "balls": 1, "runs": 1, "rate": "100.00" },
    "P Kumar": { "balls": 2, "runs": 1, "rate": "50.00" },
    "MM Sharma": { "balls": 3, "runs": 1, "rate": "33.33" }
  },
  "2015": {
    "RG Sharma": { "balls": 333, "runs": 482, "rate": "144.74" },
    "AJ Finch": { "balls": 33, "runs": 23, "rate": "69.70" },
    "AP Tare": { "balls": 17, "runs": 14, "rate": "82.35" },
    "AT Rayudu": { "balls": 192, "runs": 281, "rate": "146.35" },
    "CJ Anderson": { "balls": 96, "runs": 114, "rate": "118.75" },
    "RV Uthappa": { "balls": 277, "runs": 364, "rate": "131.41" },
    "G Gambhir": { "balls": 278, "runs": 327, "rate": "117.63" },
    "MK Pandey": { "balls": 184, "runs": 225, "rate": "122.28" },
    "SA Yadav": { "balls": 113, "runs": 157, "rate": "138.94" },
    "YK Pathan": { "balls": 229, "runs": 312, "rate": "136.24" },
    "DR Smith": { "balls": 331, "runs": 399, "rate": "120.54" },
    "BB McCullum": { "balls": 276, "runs": 436, "rate": "157.97" },
    "SK Raina": { "balls": 303, "runs": 374, "rate": "123.43" },
    "F du Plessis": { "balls": 304, "runs": 380, "rate": "125.00" },
    "RA Jadeja": { "balls": 126, "runs": 132, "rate": "104.76" },
    "MS Dhoni": { "balls": 305, "runs": 372, "rate": "121.97" },
    "DJ Bravo": { "balls": 148, "runs": 195, "rate": "131.76" },
    "R Ashwin": { "balls": 32, "runs": 52, "rate": "162.50" },
    "MM Sharma": { "balls": 18, "runs": 28, "rate": "155.56" },
    "MA Agarwal": { "balls": 176, "runs": 213, "rate": "121.02" },
    "CM Gautam": { "balls": 5, "runs": 4, "rate": "80.00" },
    "JA Morkel": { "balls": 65, "runs": 86, "rate": "132.31" },
    "SS Iyer": { "balls": 342, "runs": 439, "rate": "128.36" },
    "KM Jadhav": { "balls": 140, "runs": 189, "rate": "135.00" },
    "Yuvraj Singh": { "balls": 209, "runs": 248, "rate": "118.66" },
    "JP Duminy": { "balls": 315, "runs": 414, "rate": "131.43" },
    "NM Coulter-Nile": { "balls": 18, "runs": 20, "rate": "111.11" },
    "A Mishra": { "balls": 12, "runs": 8, "rate": "66.67" },
    "Imran Tahir": { "balls": 6, "runs": 5, "rate": "83.33" },
    "AM Rahane": { "balls": 412, "runs": 540, "rate": "131.07" },
    "SV Samson": { "balls": 162, "runs": 204, "rate": "125.93" },
    "SPD Smith": { "balls": 220, "runs": 298, "rate": "135.45" },
    "KK Nair": { "balls": 145, "runs": 181, "rate": "124.83" },
    "STR Binny": { "balls": 65, "runs": 74, "rate": "113.85" },
    "JP Faulkner": { "balls": 108, "runs": 144, "rate": "133.33" },
    "DJ Hooda": { "balls": 95, "runs": 151, "rate": "158.95" },
    "CH Morris": { "balls": 45, "runs": 76, "rate": "168.89" },
    "V Sehwag": { "balls": 84, "runs": 99, "rate": "117.86" },
    "WP Saha": { "balls": 197, "runs": 249, "rate": "126.40" },
    "M Vijay": { "balls": 228, "runs": 251, "rate": "110.09" },
    "GJ Maxwell": { "balls": 113, "runs": 146, "rate": "129.20" },
    "AR Patel": { "balls": 174, "runs": 206, "rate": "118.39" },
    "DA Miller": { "balls": 267, "runs": 357, "rate": "133.71" },
    "GJ Bailey": { "balls": 190, "runs": 259, "rate": "136.32" },
    "MG Johnson": { "balls": 36, "runs": 31, "rate": "86.11" },
    "Anureet Singh": { "balls": 31, "runs": 18, "rate": "58.06" },
    "Karanveer Singh": { "balls": 16, "runs": 11, "rate": "68.75" },
    "DA Warner": { "balls": 356, "runs": 562, "rate": "157.87" },
    "S Dhawan": { "balls": 285, "runs": 353, "rate": "123.86" },
    "KL Rahul": { "balls": 124, "runs": 142, "rate": "114.52" },
    "NV Ojha": { "balls": 120, "runs": 137, "rate": "114.17" },
    "RS Bopara": { "balls": 120, "runs": 145, "rate": "120.83" },
    "KS Williamson": { "balls": 27, "runs": 31, "rate": "114.81" },
    "KV Sharma": { "balls": 85, "runs": 104, "rate": "122.35" },
    "Parvez Rasool": { "balls": 2, "runs": 2, "rate": "100.00" },
    "AD Russell": { "balls": 169, "runs": 326, "rate": "192.90" },
    "Shakib Al Hasan": { "balls": 27, "runs": 36, "rate": "133.33" },
    "CH Gayle": { "balls": 331, "runs": 491, "rate": "148.34" },
    "V Kohli": { "balls": 386, "runs": 505, "rate": "130.83" },
    "KD Karthik": { "balls": 117, "runs": 141, "rate": "120.51" },
    "Mandeep Singh": { "balls": 100, "runs": 157, "rate": "157.00" },
    "AB de Villiers": { "balls": 291, "runs": 513, "rate": "176.29" },
    "DJG Sammy": { "balls": 18, "runs": 13, "rate": "72.22" },
    "SA Abbott": { "balls": 13, "runs": 15, "rate": "115.38" },
    "HV Patel": { "balls": 12, "runs": 19, "rate": "158.33" },
    "AN Ahmed": { "balls": 5, "runs": 10, "rate": "200.00" },
    "AD Mathews": { "balls": 103, "runs": 144, "rate": "139.81" },
    "TG Southee": { "balls": 9, "runs": 13, "rate": "144.44" },
    "R Dhawan": { "balls": 33, "runs": 36, "rate": "109.09" },
    "KA Pollard": { "balls": 255, "runs": 419, "rate": "164.31" },
    "J Suchith": { "balls": 32, "runs": 48, "rate": "150.00" },
    "Harbhajan Singh": { "balls": 72, "runs": 117, "rate": "162.50" },
    "VR Aaron": { "balls": 3, "runs": 6, "rate": "200.00" },
    "YS Chahal": { "balls": 1, "runs": 1, "rate": "100.00" },
    "PA Patel": { "balls": 246, "runs": 339, "rate": "137.80" },
    "UBT Chand": { "balls": 83, "runs": 102, "rate": "122.89" },
    "S Gopal": { "balls": 1, "runs": 1, "rate": "100.00" },
    "P Negi": { "balls": 72, "runs": 116, "rate": "161.11" },
    "A Nehra": { "balls": 7, "runs": 1, "rate": "14.29" },
    "RG More": { "balls": 2, "runs": 2, "rate": "100.00" },
    "EJG Morgan": { "balls": 151, "runs": 187, "rate": "123.84" },
    "A Ashish Reddy": { "balls": 46, "runs": 73, "rate": "158.70" },
    "LMP Simmons": { "balls": 438, "runs": 540, "rate": "123.29" },
    "R Vinay Kumar": { "balls": 2, "runs": 0, "rate": "0.00" },
    "P Kumar": { "balls": 25, "runs": 17, "rate": "68.00" },
    "NLTC Perera": { "balls": 15, "runs": 12, "rate": "80.00" },
    "Gurkeerat Singh": { "balls": 39, "runs": 35, "rate": "89.74" },
    "RN ten Doeschate": { "balls": 45, "runs": 61, "rate": "135.56" },
    "PP Chawla": { "balls": 47, "runs": 54, "rate": "114.89" },
    "SR Watson": { "balls": 257, "runs": 347, "rate": "135.02" },
    "HH Pandya": { "balls": 60, "runs": 112, "rate": "186.67" },
    "MS Bisla": { "balls": 30, "runs": 37, "rate": "123.33" },
    "RR Rossouw": { "balls": 10, "runs": 14, "rate": "140.00" },
    "D Wiese": { "balls": 85, "runs": 122, "rate": "143.53" },
    "Iqbal Abdulla": { "balls": 17, "runs": 20, "rate": "117.65" },
    "MK Tiwary": { "balls": 56, "runs": 57, "rate": "101.79" },
    "SE Marsh": { "balls": 62, "runs": 93, "rate": "150.00" },
    "MC Henriques": { "balls": 210, "runs": 287, "rate": "136.67" },
    "SN Khan": { "balls": 70, "runs": 111, "rate": "158.57" },
    "MA Starc": { "balls": 14, "runs": 11, "rate": "78.57" },
    "MJ McClenaghan": { "balls": 6, "runs": 13, "rate": "216.67" },
    "SL Malinga": { "balls": 10, "runs": 6, "rate": "60.00" },
    "DS Kulkarni": { "balls": 11, "runs": 4, "rate": "36.36" },
    "PV Tambe": { "balls": 5, "runs": 3, "rate": "60.00" },
    "GH Vihari": { "balls": 34, "runs": 39, "rate": "114.71" },
    "DW Steyn": { "balls": 13, "runs": 20, "rate": "153.85" },
    "B Kumar": { "balls": 10, "runs": 17, "rate": "170.00" },
    "Sandeep Sharma": { "balls": 14, "runs": 9, "rate": "64.29" },
    "S Nadeem": { "balls": 7, "runs": 2, "rate": "28.57" },
    "DJ Muthuswami": { "balls": 3, "runs": 1, "rate": "33.33" },
    "M Vohra": { "balls": 81, "runs": 82, "rate": "101.23" },
    "J Botha": { "balls": 15, "runs": 31, "rate": "206.67" },
    "SS Tiwary": { "balls": 78, "runs": 109, "rate": "139.74" },
    "PJ Cummins": { "balls": 2, "runs": 0, "rate": "0.00" },
    "UT Yadav": { "balls": 14, "runs": 29, "rate": "207.14" },
    "GB Hogg": { "balls": 6, "runs": 7, "rate": "116.67" },
    "SN Thakur": { "balls": 6, "runs": 7, "rate": "116.67" },
    "J Theron": { "balls": 1, "runs": 1, "rate": "100.00" },
    "NJ Maddinson": { "balls": 7, "runs": 4, "rate": "57.14" },
    "Bipul Sharma": { "balls": 2, "runs": 1, "rate": "50.00" },
    "SP Narine": { "balls": 1, "runs": 0, "rate": "0.00" },
    "Q de Kock": { "balls": 77, "runs": 122, "rate": "158.44" },
    "R Bhatia": { "balls": 1, "runs": 0, "rate": "0.00" },
    "Ankit Sharma": { "balls": 6, "runs": 7, "rate": "116.67" },
    "BE Hendricks": { "balls": 2, "runs": 1, "rate": "50.00" },
    "MEK Hussey": { "balls": 70, "runs": 77, "rate": "110.00" },
    "Azhar Mahmood": { "balls": 7, "runs": 6, "rate": "85.71" },
    "M Morkel": { "balls": 3, "runs": 4, "rate": "133.33" },
    "S Aravind": { "balls": 1, "runs": 0, "rate": "0.00" }
  },
  "2016": {
    "LMP Simmons": { "balls": 8, "runs": 8, "rate": "100.00" },
    "RG Sharma": { "balls": 366, "runs": 489, "rate": "133.61" },
    "HH Pandya": { "balls": 63, "runs": 44, "rate": "69.84" },
    "JC Buttler": { "balls": 183, "runs": 255, "rate": "139.34" },
    "AT Rayudu": { "balls": 277, "runs": 334, "rate": "120.58" },
    "KA Pollard": { "balls": 144, "runs": 208, "rate": "144.44" },
    "S Gopal": { "balls": 16, "runs": 2, "rate": "12.50" },
    "Harbhajan Singh": { "balls": 84, "runs": 92, "rate": "109.52" },
    "R Vinay Kumar": { "balls": 12, "runs": 13, "rate": "108.33" },
    "MJ McClenaghan": { "balls": 23, "runs": 34, "rate": "147.83" },
    "AM Rahane": { "balls": 378, "runs": 480, "rate": "126.98" },
    "F du Plessis": { "balls": 162, "runs": 206, "rate": "127.16" },
    "KP Pietersen": { "balls": 61, "runs": 73, "rate": "119.67" },
    "MA Agarwal": { "balls": 25, "runs": 27, "rate": "108.00" },
    "Q de Kock": { "balls": 326, "runs": 445, "rate": "136.50" },
    "SS Iyer": { "balls": 43, "runs": 30, "rate": "69.77" },
    "KK Nair": { "balls": 295, "runs": 357, "rate": "121.02" },
    "SV Samson": { "balls": 258, "runs": 291, "rate": "112.79" },
    "P Negi": { "balls": 59, "runs": 57, "rate": "96.61" },
    "CR Brathwaite": { "balls": 38, "runs": 83, "rate": "218.42" },
    "CH Morris": { "balls": 109, "runs": 195, "rate": "178.90" },
    "NM Coulter-Nile": { "balls": 14, "runs": 9, "rate": "64.29" },
    "A Mishra": { "balls": 14, "runs": 4, "rate": "28.57" },
    "Z Khan": { "balls": 13, "runs": 6, "rate": "46.15" },
    "RV Uthappa": { "balls": 288, "runs": 394, "rate": "136.81" },
    "G Gambhir": { "balls": 411, "runs": 501, "rate": "121.90" },
    "MK Pandey": { "balls": 183, "runs": 248, "rate": "135.52" },
    "M Vijay": { "balls": 364, "runs": 453, "rate": "124.45" },
    "M Vohra": { "balls": 131, "runs": 161, "rate": "122.90" },
    "DA Miller": { "balls": 130, "runs": 161, "rate": "123.85" },
    "GJ Maxwell": { "balls": 124, "runs": 179, "rate": "144.35" },
    "WP Saha": { "balls": 212, "runs": 270, "rate": "127.36" },
    "MP Stoinis": { "balls": 108, "runs": 146, "rate": "135.19" },
    "AR Patel": { "balls": 77, "runs": 111, "rate": "144.16" },
    "AJ Finch": { "balls": 297, "runs": 393, "rate": "132.32" },
    "BB McCullum": { "balls": 262, "runs": 354, "rate": "135.11" },
    "SK Raina": { "balls": 312, "runs": 399, "rate": "127.88" },
    "KD Karthik": { "balls": 266, "runs": 335, "rate": "125.94" },
    "RA Jadeja": { "balls": 175, "runs": 191, "rate": "109.14" },
    "Ishan Kishan": { "balls": 41, "runs": 42, "rate": "102.44" },
    "DJ Bravo": { "balls": 82, "runs": 99, "rate": "120.73" },
    "CH Gayle": { "balls": 150, "runs": 227, "rate": "151.33" },
    "V Kohli": { "balls": 637, "runs": 973, "rate": "152.75" },
    "AB de Villiers": { "balls": 405, "runs": 687, "rate": "169.63" },
    "SR Watson": { "balls": 134, "runs": 179, "rate": "133.58" },
    "KM Jadhav": { "balls": 31, "runs": 42, "rate": "135.48" },
    "SN Khan": { "balls": 31, "runs": 66, "rate": "212.90" },
    "DA Warner": { "balls": 558, "runs": 848, "rate": "151.97" },
    "S Dhawan": { "balls": 427, "runs": 501, "rate": "117.33" },
    "MC Henriques": { "balls": 157, "runs": 182, "rate": "115.92" },
    "NV Ojha": { "balls": 138, "runs": 136, "rate": "98.55" },
    "DJ Hooda": { "balls": 119, "runs": 144, "rate": "121.01" },
    "EJG Morgan": { "balls": 105, "runs": 123, "rate": "117.14" },
    "A Ashish Reddy": { "balls": 29, "runs": 47, "rate": "162.07" },
    "KV Sharma": { "balls": 30, "runs": 36, "rate": "120.00" },
    "AD Russell": { "balls": 114, "runs": 188, "rate": "164.91" },
    "YK Pathan": { "balls": 248, "runs": 361, "rate": "145.56" },
    "C Munro": { "balls": 30, "runs": 30, "rate": "100.00" },
    "SA Yadav": { "balls": 141, "runs": 182, "rate": "129.08" },
    "PA Patel": { "balls": 151, "runs": 177, "rate": "117.22" },
    "SPD Smith": { "balls": 175, "runs": 270, "rate": "154.29" },
    "MS Dhoni": { "balls": 210, "runs": 284, "rate": "135.24" },
    "MR Marsh": { "balls": 11, "runs": 7, "rate": "63.64" },
    "R Bhatia": { "balls": 20, "runs": 34, "rate": "170.00" },
    "SE Marsh": { "balls": 134, "runs": 159, "rate": "118.66" },
    "MG Johnson": { "balls": 14, "runs": 5, "rate": "35.71" },
    "MM Sharma": { "balls": 26, "runs": 32, "rate": "123.08" },
    "P Sahu": { "balls": 13, "runs": 19, "rate": "146.15" },
    "Sandeep Sharma": { "balls": 9, "runs": 8, "rate": "88.89" },
    "B Kumar": { "balls": 27, "runs": 43, "rate": "159.26" },
    "KH Pandya": { "balls": 124, "runs": 237, "rate": "191.13" },
    "TG Southee": { "balls": 18, "runs": 30, "rate": "166.67" },
    "AD Nath": { "balls": 27, "runs": 20, "rate": "74.07" },
    "JP Faulkner": { "balls": 58, "runs": 77, "rate": "132.76" },
    "P Kumar": { "balls": 26, "runs": 24, "rate": "92.31" },
    "DS Kulkarni": { "balls": 16, "runs": 27, "rate": "168.75" },
    "NLTC Perera": { "balls": 92, "runs": 150, "rate": "163.04" },
    "IK Pathan": { "balls": 13, "runs": 11, "rate": "84.62" },
    "R Ashwin": { "balls": 38, "runs": 41, "rate": "107.89" },
    "D Wiese": { "balls": 4, "runs": 5, "rate": "125.00" },
    "JP Duminy": { "balls": 155, "runs": 191, "rate": "123.23" },
    "MJ Guptill": { "balls": 55, "runs": 57, "rate": "103.64" },
    "KJ Abbott": { "balls": 8, "runs": 13, "rate": "162.50" },
    "Shakib Al Hasan": { "balls": 106, "runs": 114, "rate": "107.55" },
    "KL Rahul": { "balls": 271, "runs": 397, "rate": "146.49" },
    "TM Head": { "balls": 39, "runs": 54, "rate": "138.46" },
    "STR Binny": { "balls": 39, "runs": 63, "rate": "161.54" },
    "KW Richardson": { "balls": 1, "runs": 1, "rate": "100.00" },
    "DW Steyn": { "balls": 2, "runs": 1, "rate": "50.00" },
    "Ankit Sharma": { "balls": 3, "runs": 3, "rate": "100.00" },
    "M Ashwin": { "balls": 1, "runs": 0, "rate": "0.00" },
    "NS Naik": { "balls": 31, "runs": 23, "rate": "74.19" },
    "R Dhawan": { "balls": 6, "runs": 14, "rate": "233.33" },
    "AP Tare": { "balls": 15, "runs": 8, "rate": "53.33" },
    "DR Smith": { "balls": 220, "runs": 324, "rate": "147.27" },
    "JA Morkel": { "balls": 9, "runs": 16, "rate": "177.78" },
    "R Sathish": { "balls": 24, "runs": 24, "rate": "100.00" },
    "PP Chawla": { "balls": 26, "runs": 27, "rate": "103.85" },
    "UT Yadav": { "balls": 5, "runs": 9, "rate": "180.00" },
    "Bipul Sharma": { "balls": 25, "runs": 51, "rate": "204.00" },
    "RR Pant": { "balls": 152, "runs": 198, "rate": "130.26" },
    "CA Lynn": { "balls": 22, "runs": 25, "rate": "113.64" },
    "SS Tiwary": { "balls": 139, "runs": 170, "rate": "122.30" },
    "SW Billings": { "balls": 63, "runs": 88, "rate": "139.68" },
    "Mohammed Shami": { "balls": 4, "runs": 2, "rate": "50.00" },
    "JO Holder": { "balls": 19, "runs": 22, "rate": "115.79" },
    "SP Narine": { "balls": 13, "runs": 7, "rate": "53.85" },
    "KS Williamson": { "balls": 122, "runs": 124, "rate": "101.64" },
    "Sachin Baby": { "balls": 77, "runs": 119, "rate": "154.55" },
    "Parvez Rasool": { "balls": 9, "runs": 10, "rate": "111.11" },
    "Gurkeerat Singh": { "balls": 86, "runs": 113, "rate": "131.40" },
    "KC Cariappa": { "balls": 11, "runs": 13, "rate": "118.18" },
    "PSP Handscomb": { "balls": 12, "runs": 6, "rate": "50.00" },
    "Swapnil Singh": { "balls": 1, "runs": 0, "rate": "0.00" },
    "J Yadav": { "balls": 10, "runs": 6, "rate": "60.00" },
    "UT Khawaja": { "balls": 99, "runs": 127, "rate": "128.28" },
    "Yuvraj Singh": { "balls": 179, "runs": 236, "rate": "131.84" },
    "GJ Bailey": { "balls": 97, "runs": 84, "rate": "86.60" },
    "HM Amla": { "balls": 119, "runs": 157, "rate": "131.93" },
    "JJ Bumrah": { "balls": 11, "runs": 8, "rate": "72.73" },
    "F Behardien": { "balls": 13, "runs": 14, "rate": "107.69" },
    "BB Sran": { "balls": 3, "runs": 4, "rate": "133.33" },
    "A Zampa": { "balls": 1, "runs": 0, "rate": "0.00" },
    "N Rana": { "balls": 74, "runs": 104, "rate": "140.54" },
    "A Nehra": { "balls": 1, "runs": 1, "rate": "100.00" },
    "UBT Chand": { "balls": 4, "runs": 0, "rate": "0.00" },
    "PV Tambe": { "balls": 18, "runs": 7, "rate": "38.89" },
    "S Kaushik": { "balls": 1, "runs": 0, "rate": "0.00" },
    "BCJ Cutting": { "balls": 34, "runs": 65, "rate": "191.18" },
    "S Nadeem": { "balls": 5, "runs": 1, "rate": "20.00" },
    "Imran Tahir": { "balls": 7, "runs": 5, "rate": "71.43" },
    "M Morkel": { "balls": 1, "runs": 1, "rate": "100.00" },
    "ER Dwivedi": { "balls": 14, "runs": 24, "rate": "171.43" },
    "SB Jakati": { "balls": 2, "runs": 1, "rate": "50.00" },
    "Iqbal Abdulla": { "balls": 26, "runs": 37, "rate": "142.31" },
    "CJ Jordan": { "balls": 4, "runs": 3, "rate": "75.00" }
  },
  "2017": {
    "DA Warner": { "balls": 449, "runs": 641, "rate": "142.76" },
    "S Dhawan": { "balls": 375, "runs": 479, "rate": "127.73" },
    "MC Henriques": { "balls": 203, "runs": 277, "rate": "136.45" },
    "Yuvraj Singh": { "balls": 176, "runs": 252, "rate": "143.18" },
    "DJ Hooda": { "balls": 52, "runs": 78, "rate": "150.00" },
    "BCJ Cutting": { "balls": 26, "runs": 51, "rate": "196.15" },
    "CH Gayle": { "balls": 162, "runs": 200, "rate": "123.46" },
    "Mandeep Singh": { "balls": 177, "runs": 188, "rate": "106.21" },
    "TM Head": { "balls": 108, "runs": 151, "rate": "139.81" },
    "KM Jadhav": { "balls": 183, "runs": 267, "rate": "145.90" },
    "SR Watson": { "balls": 78, "runs": 71, "rate": "91.03" },
    "Sachin Baby": { "balls": 15, "runs": 15, "rate": "100.00" },
    "STR Binny": { "balls": 76, "runs": 78, "rate": "102.63" },
    "S Aravind": { "balls": 40, "runs": 32, "rate": "80.00" },
    "YS Chahal": { "balls": 26, "runs": 13, "rate": "50.00" },
    "TS Mills": { "balls": 11, "runs": 8, "rate": "72.73" },
    "A Choudhary": { "balls": 20, "runs": 25, "rate": "125.00" },
    "PA Patel": { "balls": 293, "runs": 395, "rate": "134.81" },
    "JC Buttler": { "balls": 179, "runs": 273, "rate": "152.51" },
    "RG Sharma": { "balls": 273, "runs": 333, "rate": "121.98" },
    "N Rana": { "balls": 263, "runs": 333, "rate": "126.62" },
    "AT Rayudu": { "balls": 78, "runs": 91, "rate": "116.67" },
    "KH Pandya": { "balls": 179, "runs": 243, "rate": "135.75" },
    "KA Pollard": { "balls": 279, "runs": 395, "rate": "141.58" },
    "HH Pandya": { "balls": 159, "runs": 250, "rate": "157.23" },
    "TG Southee": { "balls": 3, "runs": 7, "rate": "233.33" },
    "AM Rahane": { "balls": 323, "runs": 382, "rate": "118.27" },
    "MA Agarwal": { "balls": 27, "runs": 26, "rate": "96.30" },
    "SPD Smith": { "balls": 387, "runs": 472, "rate": "121.96" },
    "BA Stokes": { "balls": 221, "runs": 316, "rate": "142.99" },
    "MS Dhoni": { "balls": 250, "runs": 290, "rate": "116.00" },
    "JJ Roy": { "balls": 40, "runs": 59, "rate": "147.50" },
    "BB McCullum": { "balls": 220, "runs": 320, "rate": "145.45" },
    "SK Raina": { "balls": 304, "runs": 442, "rate": "145.39" },
    "AJ Finch": { "balls": 182, "runs": 300, "rate": "164.84" },
    "KD Karthik": { "balls": 258, "runs": 361, "rate": "139.92" },
    "G Gambhir": { "balls": 389, "runs": 498, "rate": "128.02" },
    "CA Lynn": { "balls": 161, "runs": 295, "rate": "183.23" },
    "MK Tiwary": { "balls": 235, "runs": 324, "rate": "137.87" },
    "DT Christian": { "balls": 49, "runs": 79, "rate": "161.22" },
    "HM Amla": { "balls": 287, "runs": 420, "rate": "146.34" },
    "M Vohra": { "balls": 159, "runs": 229, "rate": "144.03" },
    "WP Saha": { "balls": 186, "runs": 234, "rate": "125.81" },
    "AR Patel": { "balls": 162, "runs": 227, "rate": "140.12" },
    "GJ Maxwell": { "balls": 178, "runs": 310, "rate": "174.16" },
    "DA Miller": { "balls": 78, "runs": 83, "rate": "106.41" },
    "Vishnu Vinod": { "balls": 26, "runs": 19, "rate": "73.08" },
    "Iqbal Abdulla": { "balls": 7, "runs": 5, "rate": "71.43" },
    "P Negi": { "balls": 111, "runs": 144, "rate": "129.73" },
    "AP Tare": { "balls": 23, "runs": 18, "rate": "78.26" },
    "SW Billings": { "balls": 103, "runs": 138, "rate": "133.98" },
    "KK Nair": { "balls": 226, "runs": 281, "rate": "124.34" },
    "SV Samson": { "balls": 273, "runs": 386, "rate": "141.39" },
    "RR Pant": { "balls": 220, "runs": 366, "rate": "166.36" },
    "CH Morris": { "balls": 94, "runs": 154, "rate": "163.83" },
    "CR Brathwaite": { "balls": 15, "runs": 12, "rate": "80.00" },
    "PJ Cummins": { "balls": 53, "runs": 77, "rate": "145.28" },
    "A Mishra": { "balls": 52, "runs": 49, "rate": "94.23" },
    "S Nadeem": { "balls": 9, "runs": 2, "rate": "22.22" },
    "Z Khan": { "balls": 13, "runs": 4, "rate": "30.77" },
    "DR Smith": { "balls": 156, "runs": 239, "rate": "153.21" },
    "DS Kulkarni": { "balls": 2, "runs": 1, "rate": "50.00" },
    "P Kumar": { "balls": 9, "runs": 8, "rate": "88.89" },
    "Basil Thampi": { "balls": 28, "runs": 28, "rate": "100.00" },
    "RV Uthappa": { "balls": 235, "runs": 388, "rate": "165.11" },
    "MK Pandey": { "balls": 306, "runs": 396, "rate": "129.41" },
    "YK Pathan": { "balls": 115, "runs": 143, "rate": "124.35" },
    "SA Yadav": { "balls": 88, "runs": 105, "rate": "119.32" },
    "CR Woakes": { "balls": 47, "runs": 46, "rate": "97.87" },
    "SP Narine": { "balls": 130, "runs": 224, "rate": "172.31" },
    "Harbhajan Singh": { "balls": 16, "runs": 16, "rate": "100.00" },
    "AB de Villiers": { "balls": 163, "runs": 216, "rate": "132.52" },
    "CJ Anderson": { "balls": 122, "runs": 142, "rate": "116.39" },
    "F du Plessis": { "balls": 7, "runs": 8, "rate": "114.29" },
    "RA Tripathi": { "balls": 267, "runs": 391, "rate": "146.44" },
    "R Bhatia": { "balls": 17, "runs": 16, "rate": "94.12" },
    "DL Chahar": { "balls": 6, "runs": 14, "rate": "233.33" },
    "A Zampa": { "balls": 7, "runs": 5, "rate": "71.43" },
    "AB Dinda": { "balls": 7, "runs": 7, "rate": "100.00" },
    "Imran Tahir": { "balls": 2, "runs": 0, "rate": "0.00" },
    "NV Ojha": { "balls": 65, "runs": 79, "rate": "121.54" },
    "V Shankar": { "balls": 75, "runs": 101, "rate": "134.67" },
    "Rashid Khan": { "balls": 9, "runs": 11, "rate": "122.22" },
    "B Kumar": { "balls": 4, "runs": 4, "rate": "100.00" },
    "MP Stoinis": { "balls": 24, "runs": 17, "rate": "70.83" },
    "MM Sharma": { "balls": 50, "runs": 51, "rate": "102.00" },
    "VR Aaron": { "balls": 10, "runs": 4, "rate": "40.00" },
    "V Kohli": { "balls": 252, "runs": 308, "rate": "122.22" },
    "MJ McClenaghan": { "balls": 15, "runs": 16, "rate": "106.67" },
    "Ankit Sharma": { "balls": 15, "runs": 25, "rate": "166.67" },
    "SN Thakur": { "balls": 3, "runs": 0, "rate": "0.00" },
    "RD Chahar": { "balls": 2, "runs": 3, "rate": "150.00" },
    "LH Ferguson": { "balls": 1, "runs": 1, "rate": "100.00" },
    "C de Grandhomme": { "balls": 92, "runs": 126, "rate": "136.96" },
    "Bipul Sharma": { "balls": 24, "runs": 31, "rate": "129.17" },
    "SS Iyer": { "balls": 242, "runs": 338, "rate": "139.67" },
    "EJG Morgan": { "balls": 62, "runs": 65, "rate": "104.84" },
    "KC Cariappa": { "balls": 7, "runs": 2, "rate": "28.57" },
    "Sandeep Sharma": { "balls": 5, "runs": 7, "rate": "140.00" },
    "Ishan Kishan": { "balls": 205, "runs": 277, "rate": "135.12" },
    "JD Unadkat": { "balls": 5, "runs": 2, "rate": "40.00" },
    "AF Milne": { "balls": 12, "runs": 7, "rate": "58.33" },
    "S Badree": { "balls": 23, "runs": 13, "rate": "56.52" },
    "AD Mathews": { "balls": 27, "runs": 32, "rate": "118.52" },
    "Mohammed Shami": { "balls": 24, "runs": 36, "rate": "150.00" },
    "Mohammad Nabi": { "balls": 3, "runs": 2, "rate": "66.67" },
    "I Sharma": { "balls": 12, "runs": 8, "rate": "66.67" },
    "RA Jadeja": { "balls": 113, "runs": 158, "rate": "139.82" },
    "AJ Tye": { "balls": 29, "runs": 53, "rate": "182.76" },
    "KS Williamson": { "balls": 168, "runs": 256, "rate": "152.38" },
    "SE Marsh": { "balls": 192, "runs": 264, "rate": "137.50" },
    "Shakib Al Hasan": { "balls": 1, "runs": 1, "rate": "100.00" },
    "JP Faulkner": { "balls": 56, "runs": 54, "rate": "96.43" },
    "MG Johnson": { "balls": 17, "runs": 20, "rate": "117.65" },
    "K Rabada": { "balls": 64, "runs": 55, "rate": "85.94" },
    "AD Nath": { "balls": 1, "runs": 0, "rate": "0.00" },
    "NM Coulter-Nile": { "balls": 12, "runs": 14, "rate": "116.67" },
    "Kuldeep Yadav": { "balls": 22, "runs": 20, "rate": "90.91" },
    "UT Yadav": { "balls": 13, "runs": 10, "rate": "76.92" },
    "Washington Sundar": { "balls": 12, "runs": 9, "rate": "75.00" },
    "KV Sharma": { "balls": 41, "runs": 49, "rate": "119.51" },
    "DM Bravo": { "balls": 5, "runs": 6, "rate": "120.00" },
    "AR Bawne": { "balls": 12, "runs": 12, "rate": "100.00" },
    "SP Jackson": { "balls": 31, "runs": 38, "rate": "122.58" },
    "MJ Guptill": { "balls": 87, "runs": 132, "rate": "151.72" },
    "Anureet Singh": { "balls": 12, "runs": 15, "rate": "125.00" },
    "IK Pathan": { "balls": 3, "runs": 2, "rate": "66.67" },
    "Ankit Soni": { "balls": 9, "runs": 7, "rate": "77.78" },
    "JJ Bumrah": { "balls": 12, "runs": 16, "rate": "133.33" },
    "SL Malinga": { "balls": 3, "runs": 7, "rate": "233.33" },
    "PJ Sangwan": { "balls": 4, "runs": 2, "rate": "50.00" },
    "S Kaul": { "balls": 2, "runs": 0, "rate": "0.00" },
    "LMP Simmons": { "balls": 112, "runs": 137, "rate": "122.32" },
    "MN Samuels": { "balls": 31, "runs": 29, "rate": "93.55" },
    "Swapnil Singh": { "balls": 19, "runs": 12, "rate": "63.16" },
    "R Tewatia": { "balls": 11, "runs": 19, "rate": "172.73" },
    "MM Patel": { "balls": 1, "runs": 0, "rate": "0.00" },
    "SS Tiwary": { "balls": 43, "runs": 52, "rate": "120.93" },
    "TA Boult": { "balls": 8, "runs": 5, "rate": "62.50" },
    "CJ Jordan": { "balls": 1, "runs": 0, "rate": "0.00" },
    "IR Jaggi": { "balls": 39, "runs": 33, "rate": "84.62" },
    "PP Chawla": { "balls": 6, "runs": 2, "rate": "33.33" },
    "AS Rajpoot": { "balls": 7, "runs": 4, "rate": "57.14" }
  }
}
